//===== Hercules Script ======================================
//= Treasure Hunter Quests
//===== By: ==================================================
//= Fredzilla
//===== Current Version: =====================================
//= 1.6
//===== Description: =========================================
//= Start for Treasure hunter quests
//===== Additional Comments: =================================
//= Event_THQS - Used to check if you have already registered
//= #Treasure_Token - used to keep track of tokens
//= 1.0 - Straight conversionof Aegis NPC file
//= 1.2 some bugfixes, typos [Lupus]
//= 1.3 Removed Duplicates [Silent]
//= 1.4 Further removed duplicates. [L0ne_W0lf]
//= 1.5 Fixed name collision with 'Little Girl' in cities/lutie.txt [Ai4rei]
//= 1.6 Changed "Caral" coordinates because moc_fild04 no longer exists. [Euphy]
//============================================================

// Syntax : F_THQItemReq(<item_name>, <amount>);

function	script	F_THQItemReq	{
	if (countitem(getarg(0)) < getarg(1)) {
		mes "Weren't you supoosed";
		mes "to deliver^FF0000"+(getarg(1) > 1 ? " "+getarg(1):"")+" ^777777"+getitemname(getarg(0))+""+(getitemslots(getarg(0)) > 0 ? " ["+getitemslots(getarg(0))+"]":"")+"^000000?";
		mes " ";
		mes "Where is it?!";
		close();
	}
	return;
}

///////Job list 1///////
//1-1
mjolnir_09,187,189,6	script	Old Man	1_M_PAY_ELDER,{
	if (one_qset==1) goto N_QuestStart;
	mes "[ Old Man ]";
	mes "Ugh! An old man cannot walk in peace anymore nowadays?!";
	close;
N_QuestStart:
	mes "[ Old Man ]";
	F_THQItemReq(Knife, 1);
	mes "Ugh? whats that?!";
	mes " ";
	mes "My wife wants me home?! Alright, alright... I'm going, I'm going. Thank you for sending me the message.";
	mes " ";
	mes "Here take this 3 Treasure Tokens.";
	delitem Knife, 1;
	set one_qset,0;
	set On_Quest,0;
	set #Treasure_Token,#Treasure_Token+3;
	F_THQPoints(3);
	close;
}
//1-2;
pay_arche,86,129,6	script	Archer	4_M_JOB_HUNTER,{
	if (one_qset == 2) goto N_QuestStart;
	mes "[ Kieth ]";
	mes "Sorry can't talk, I'm a busy man, I'm waiting for my package.";
	close;
N_QuestStart:
	mes "[ Kieth ]";
	if (countitem(Delivery_Message) < 1) {
		mes "Weren't you supposed to deliver me a box? Where is it?";
		close;
	}
	F_THQItemReq(Bow, 1);
	mes "Ahh, you must be from the Treasure Hunter Agensy. Do you have my bow??";
	mes " ";
	mes "Ahh, good,thank you for your time. Take this 3 Treasure Tokens.";
	delitem 1072,1;
	delitem Bow, 1;
	set one_qset,0;
	set On_Quest,0;
	set #Treasure_Token,#Treasure_Token+3;
	F_THQPoints(3);
	close;
}
//1-3
prt_fild06,37,192,6	script	Farmer	4_M_TELEPORTER,{
	if (one_qset == 3 && countitem(Jellopy) > 99 && countitem(Worm_Peelings) > 99 && countitem(Fluff) > 99 && countitem(Clover) > 99) goto N_QuestComp;
	if (one_qset==3) goto N_QuestStart;
	mes "[ Billy-Bob ]";
	mes "Arrrg!... Those Bastard Bugs have eaten everything, this place donest even look like my farm anymore!!";
	close;
N_QuestComp:
	mes "[ Billy-Bob ]";
	mes "Ohhh, thank you thats a good start for me.";
	mes "Well those bugs can bugger off...";
	mes " ";
	mes "Well here take these 5 Treasure Tokens.";
	delitem 909,100;
	delitem 955,100;
	delitem 914,100;
	delitem 705,100;
	set one_qset,0;
	set #Treasure_Token,#Treasure_Token+5;
	F_THQPoints(5);
	set On_Quest,0;
	close;
N_QuestStart:
	mes "[ Billy-Bob ]";
	mes "Those Bastard Bugs are Everywere!!!";
	mes "You must be from the guild! OK, bring me 100 Worm Peelings, 100 Jellopys, 100 fluff and 100 Clovers.";
	close;
}
//1-4
prontera,264,353,6	script	Old Lady#thq	8_F_GRANDMOTHER,{
	if (one_qset == 4 && countitem(Mementos) > 149) goto N_QuestComp;
	if (one_qset == 4) goto N_QuestStart;
	mes "[ Old Lady ]";
	mes "This is my husbands grave... I'm just paying him a little visit.";
	close;
N_QuestComp:
	mes "[ Old Lady ]";
	mes "You have them?!";
	next;
	mes "[ Old Lady ]";
	mes "Thank you so much! Here have these 5 Treasure Tokens.";
	delitem 934,150;
	set #Treasure_Token,#Treasure_Token+5;
	F_THQPoints(5);
	set one_qset,0;
	set On_Quest,0;
	close;
N_QuestStart:
	mes "[ Old Lady ]";
	mes "So you're the one who came to help me?";
	mes " ";
	mes "Ok well this is what I wanted you to do,this grave beside me is my husbands grave and I promised him that I would bury some Mementos with him, The problem is that I have no Mementos...";
	next;
	mes "[ Old Lady ]";
	mes "Gather 150 Mementos, and please give them to me once you're done.";
	close;
}
///////Job list 2///////
//2-1;
morocc,59,109,6	script	Erika	8_F_GIRL,{
	if (two_qset == 1 && countitem(Delivery_Message) > 0) goto N_QuestComp;
	if (two_qset == 1) goto N_QuestStart;
	mes "[ Erika ]";
	mes "Hello my name is Erika.";
	close;
N_QuestComp:
	mes "[ Erika ]";
	F_THQItemReq(Club, 1);
	mes "What's that? You have a letter for me!!";
	mes "Oooooh I just love,love letters :D. next here will I open it.";
	next;
	mes "[ Letter ]";
	mes "Dear Erika";
	mes " ";
	mes "Sorry to inform you but you have been evicted, please move out within 3-5 days.";
	mes " ";
	mes "-Managment";
	next;
	mes "[ Erika ]";
	mes "Oh... um... Well damn it! That bastard thinks he can kick me out!!!!!";
	mes " ";
	mes "Well thank you for delivering this anyway. Here, you may have these 3 Treasure Tokens.";
	delitem 1072,1;
	delitem Club, 1;
	set two_qset,0;
	set #Treasure_Token,#Treasure_Token+3;
	F_THQPoints(3);
	set On_Quest,0;
	close;
N_QuestStart:
	mes "[ Erika ]";
	mes "So your the one that has a letter for me?";
	mes " ";
	mes "Ok well where's the letter?";
	close;
}
//2-2;
in_moc_16,15,30,6	script	Jeramiah	4_M_JOB_ASSASSIN,{
	if (two_qset == 2 && countitem(1998) > 0) goto N_QuestComp;
	if (two_qset == 2) goto N_QuestStart;
	mes "[ Jeramiah ]";
	mes "It's dumb when you have to pretend you like some people...";
	close;
N_QuestComp:
	mes "[ Jeramiah ]";
	F_THQItemReq(Jur, 1);
	mes "Ahh hello, you must be from the Treasure Hunter Guild.";
	mes "Do you have my Jur? Ahh good good. Thank you.";
	mes "Here have this Treasure Hunter Token.";
	delitem 1998,1;
	delitem Jur, 1;
	set two_qset,0;
	set On_Quest,0;
	set #Treasure_Token,#Treasure_Token+3;
	F_THQPoints(3);
	close;
N_QuestStart:
	mes "[ Jeramiah ]";
	mes "So you're the one that is supposed to bring my Jur?";
	mes "So where's my Jur?";
	close;
}
//2-3;
prt_fild07,316,263,6	script	Marsh Man	4_M_02,{
	if (two_qset == 3 && countitem(Honey) > 199) goto N_QuestComp;
	if (two_qset == 3) goto N_QuestStart;
	mes "[ Lenith ]";
	mes "Hello, sorry I don't have much time to talk I'm waiting for someone.";
	close;
N_QuestComp:
	mes "[ Lenith ]";
	mes "Oh hello, OH you have my honey and my bees! Thank you so much.";
	mes " ";
	mes "Here have these 5 Treasure Hunter Tokens.";
	delitem 518,200;
	set #Treasure_Token,#Treasure_Token+5;
	F_THQPoints(5);
	set two_qset,0;
	set On_Quest,0;
	close;
N_QuestStart:
	mes "[ Lenith ]";
	mes "Hello, my name is Lenith and I have a quest for you.";
	mes "Well recently a bunch of stupid bears stole the supers off all my bee's nests...Stupid bears.";
	mes " ";
	mes "What I need you to do is find me some more honey so these bee's can get through the winter. I will need about 200 Honey.";
	close;
}
//2-4;
payon,161,72,6	script	Molly	4_F_06,{
	if (two_qset == 4 && countitem(Skull) > 199) goto N_QuestComp;
	if (two_qset == 4) goto N_QuestStart;
	mes "[ Molly ]";
	mes "Sorry can't talk, I'm waiting for someone.";
	close;
N_QuestComp:
	mes "[ Molly ]";
	mes "WOW YOU DID IT!!!";
	mes " ";
	mes "I knew you were strong! I have no idea how you killed that monster though.";
	mes "thank you so much, here have these 8 Guild Tokens as a reward.";
	delitem 7005,200;
	set two_qset,0;
	set On_Quest,0;
	set #Treasure_Token,#Treasure_Token+8;
	F_THQPoints(8);
	close;
N_QuestStart:
	mes "[ Molly ]";
	mes "Wow you must be the brave man from the treasure hunter guild!";
	mes "Ok here is whats happening, I don't know what started it but there is a strange Ronan Skeleton running aroung the woods 2 East from here.";
	next;
	mes "[ Molly ]";
	mes "We have try to kill him in the past but it was not...ummm...It was a bad idea. What I want you to do is go there and bring me 200 Skull as proof of you killing him so many times.";
	mes " ";
	mes "Good Luck";
	close;
}
///////Job list 3///////
//3-1;
cmd_fild08,323,359,5	script	Clark	1_M_YOUNGKNIGHT,{
	if (three_qset == 1 && countitem(Elder_Pixies_Beard) > 149) goto N_QuestComp;
	if (three_qset == 1) goto N_QuestStart;
	mes "[ Clark ]";
	mes "Love to chat, but I'm waiting for someone.";
	close;
N_QuestComp:
	mes "[ Clark ]";
	mes "Ok well this is a start.";
	mes " ";
	mes "I hope that this hole will go away 1 day, and I might have another quest for you in the future.";
	mes "here take these 5 Treasure Tokens.";
	delitem 1040,150;
	set #Treasure_Token,#Treasure_Token+5;
	F_THQPoints(5);
	set three_qset,0;
	set On_Quest,0;
	close;
N_QuestStart:
	mes "[ Clark ]";
	mes "Well hello to you.";
	mes "You must be from the Treasure Hunter Guild.";
	mes " ";
	mes "Ok well this is my problem, you see that hole in the ground? Yah that thing just popped out of nowhere a couple years ago, inside its full of these ugly ants and these monsters called Giearths.";
	next;
	mes "[ Clark ]";
	mes "What I want you to do is kill some of the Giearths.Bring me 150 of there little Moustaches.";
	close;
}
//3-2;
yuno_fild01,186,162,6	script	Flank	1_F_MERCHANT_01,{
	if (three_qset == 2 && countitem(Merchant_Box_2) > 0) goto N_QuestComp;
	if (three_qset == 2) goto N_QuestStart;
	mes "[ Flank ]";
	mes "Sorry I'm waiting for my package so I don't want to talk.";
	close;
N_QuestComp:
	mes "[ Flank ]";
	F_THQItemReq(Red_Herb, 50);
	mes "Perfect right on time, now I must be going to plant this bomb.... Err I mean give this package to my mother for her birthday.";
	next;
	mes "[ Flank ]";
	mes "Thanks";
	mes "Have these 3 Treasure Tokens.";
	delitem 1082,1;
	delitem Red_Herb, 50;
	set three_qset,0;
	set #Treasure_Token,#Treasure_Token+3;
	F_THQPoints(3);
	set On_Quest,0;
	close;
N_QuestStart:
	mes "[ Flank ]";
	mes "So you have my packages?";
	mes "Well where is it then?";
	close;
}
//3-3 Goes to 7-3 using callfunc
prt_sewb1,120,245,6	script	Sewer Managment Knight	4_M_GEF_SOLDIER,{
	if (three_qset == 3 && countitem(Worm_Peelings) > 499) goto N_QuestComp;
	if (three_qset == 3) goto N_QuestStart;
	if (seven_qset == 3) goto N_QuestStart2;
	mes "[ Sewer Managmant ]";
	mes "Live doesn't get any worse for me,working in the bug filled Culvert every day...";
	close;
N_QuestComp:
	mes "[ Sewer Managment ]";
	mes "Well it seems like it was no trouble for you.";
	mes "Thanks you may have these 10 Treasure Tokens in return.";
	delitem 955,500;
	set #Treasure_Token,#Treasure_Token+10;
	F_THQPoints(10);
	set three_qset,0;
	set On_Quest,0;
	close;
N_QuestStart:
	mes "[ Sewer Managmant ]";
	mes "For a while now we have had monster, mostly bugs infesting the culvert...";
	mes " ";
	mes "What I want you to do is kinda clean some of it out, every little bit counts.";
	mes "Bring me 500 Worm Peelings.";
	close;
N_QuestStart2:
	callfunc "seven_qset-3";
	close;
}
//3-4
mjolnir_02,87,357,6	script	Man#01	1_M_BARD,{
	if (three_qset == 4 && countitem(Lantern) > 349) goto N_QuestComp;
	if (three_qset == 4) goto N_QuestStart;
	mes "[ Rudolfo ]";
	mes "Danger, the Coal Mine is now a hostile area.";
	close;
N_QuestComp:
	mes "[ Rudolfo ]";
	mes "Well its good to see that you have come back alive.";
	mes "I had my doubts but thank you for your help.";
	mes " ";
	mes "Here have these 10 Treasure Tokens.";
	delitem 1041,350;
	set three_qset,0;
	set On_Quest,0;
	set #Treasure_Token,#Treasure_Token+10;
	F_THQPoints(10);
	close;
N_QuestStart:
	mes "[ Rudolfo ]";
	mes "Hello, you must be from the Treasure Hunter Guild.";
	mes " ";
	mes "They must have filled you in the lower levels of this Coal Mine, I know it's disturbing and we are still trying to figure out why and how 2 Evil Druids was there.";
	mes " ";
	mes "Well what I want you to do is bring me 350 Lantern's as proof that you have cleaned some of them out, is yours to keep except the one I asked you to get for me.";
	close;
}
///////Job list 4///////
//4-1;
pay_arche,45,138,6	script	Flora	4_F_07,{
	if (four_qset == 1 && countitem(Decayed_Nail) > 249) goto N_QuestComp;
	if (four_qset == 1) goto N_QuestStart;
	mes "[ Flora ]";
	mes "Well hello be careful in the cave, we heard some reports of Undead monster lurking around.";
	close;
N_QuestComp:
	mes "[ Flora ]";
	mes "Welcome back. Good job, you did it! (I wonder if that Flaming Bastard is still alive)";
	mes "Well I hope that cut down a bit of monsters. Here you may have these 5 Tokens as a reward.";
	delitem 957,250;
	set #Treasure_Token,#Treasure_Token+5;
	F_THQPoints(5);
	set four_qset,0;
	set On_Quest,0;
	killmonster "pay_dun00","Flora::OnMobDead";
	close;
N_QuestStart:
	mes "[ Flora ]";
	mes "Well hello there.";
	mes " ";
	mes "This is what I need you to do, bring me 250 Decayed Nails - awhile back Payon Cave used to be a safe place to go...But now things have gone out of control and Zombies have invaded the first floor...";
	mes " ";
	mes "There are also new monsters which recently poped out of nowhere, and we call them Flaming Bastards...Be careful because they are very strong.";
	next;
	mes "[ Flora ]";
	mes "Good Luck";
	mes "Remember I need 250 Nail's";
	monster "pay_dun00",0,0,"Flaming Bastard",1072,1,"Flora::OnMobDead";
	monster "pay_dun00",0,0,"Flaming Bastard",1072,1,"Flora::OnMobDead";
	close;
OnMobDead:
	end;
}
//4-2;
yuno,48,139,6	script	Zed	4_M_JOB_WIZARD,{
	if (four_qset == 2 && countitem(1999) > 0) goto N_QuestComp;
	if (four_qset == 2) goto N_QuestStart;
	mes "[ Zed ]";
	mes "Get out of my face you flake.";
	close;
N_QuestComp:
	mes "[ Zed ]";
	F_THQItemReq(Rod, 1);
	mes "My goodness! Took you long enough bastard?!";
	mes "Did you know how much time you wasted?";
	mes "You're too slow! I'll never recommend you to anyone. Give me my staff and get out of my face!";
	next;
	mes "[ Zed ]";
	mes "Well for your effort. I will give you these crapy 3 Treausre Tokens.";
	delitem 1999,1;
	delitem Rod, 1;
	set On_Quest,0;
	set four_qset,0;
	set #Treasure_Token,#Treasure_Token+3;
	F_THQPoints(3);
	close;
N_QuestStart:
	mes "[ Zed ]";
	mes "Where's my staff?";
	close;
}
//4-3;
prontera,167,215,5	script	Dassy	4_F_SISTER,{
	if (four_qset == 3 && countitem(Shoot) > 99) goto N_QuestComp;
	if (four_qset == 3) goto N_QuestStart;
	mes "[ Dassy ]";
	mes "Hello!";
	close;
N_QuestComp:
	mes "[ Dassy ]";
	mes "Yes! Now my pet will not starve!";
	mes "Thank you so much!";
	mes "You may have these 5 Treasure Token.";
	delitem 711,100;
	set On_Quest,0;
	set four_qset,0;
	set #Treasure_Token,#Treasure_Token+5;
	F_THQPoints(5);
	close;
N_QuestStart:
	mes "[ Dassy ]";
	mes "Hello human!";
	mes "You have to come and help me! Please!";
	mes " ";
	mes "I need you to hunt and give me 100 Shoots. Please do help!";
	mes "Thank you human!";
	close;
}
//4-4;
prt_gld,157,99,6	script	Czhore	4_M_CRU_OLD,{
	if (four_qset == 4 && countitem(Emperium) > 39) goto N_QuestComp;
	if (four_qset == 4) goto N_QuestStart;
	mes "[ Czhore ]";
	mes "Hello friend";
	mes "Did you come to check out one of these guild halls?";
	close;
N_QuestComp:
	mes "[ Czhore ]";
	mes "Thank god!";
	mes " ";
	mes "I'm so happy to see some Emperiums! Thank you "+strcharinfo(PC_NAME)+".";
	next;
	mes "[ Czhore ]";
	mes "Here have these 5 Treasure Tokens.";
	mes "And some of my old treasure...";
	delitem 714,40;
	monster "prt_gld",155,99,"Old Man's Treasure",1324,1;
	set four_qset,0;
	set On_Quest,0;
	set #Treasure_Token,#Treasure_Token+5;
	F_THQPoints(5);
	close;
N_QuestStart:
	mes "[ Czhore ]";
	mes "Hello friend";
	mes "I know this may sound stupid but ever since I was a boy I have dreamed of having an Emperium...";
	mes "As I know I look old, I have just never been able to find some, now that I am retired from the Treasure Hunter Guild there is no more action for me...";
	mes " ";
	mes "If you can get me 40 Emperiums I shall reward you.";
	close;
}
///////Job list 5///////
//5-1;
prt_maze01,18,184,6	script	Lithin#01	4_M_CRU_OLD,{
	if (five_qset == 1 && countitem(Wild_Boars_Mane) > 249) goto N_QuestComp;
	if (five_qset == 1) goto N_QuestStart;
	mes "[ Lithin ]";
	mes "Well hello.";
	mes "Welcome to the Forest Maze.";
	close;
N_QuestComp:
	mes "[ Lithin ]";
	mes "Oh thank you so much, but they will be back...";
	next;
	mes "Take these 5 Treasure Tokens";
	delitem 1028,250;
	set five_qset,0;
	set On_Quest,0;
	set #Treasure_Token,#Treasure_Token+5;
	F_THQPoints(5);
	close;
N_QuestStart:
	mes "[ Lithin ]";
	mes "Well hello.";
	mes "Welcome to the Forest Maze, I have a task for you.";
	mes " ";
	mes "Ever heard of a monster called a Savage? It looks like a boar but it makes very annoying noices.";
	mes "What I want you to do is bring me 250 Manes from the savages.";
	close;
}
//5-2 goes to 6-2 using callfunc;
moc_ruins,75,167,6	script	Lithin#02	4_M_BARBER,{
	if (five_qset == 2 && countitem(Skel_Bone) > 299) goto N_QuestComp;
	if (five_qset == 2) goto N_QuestStart;
	if (six_qset == 2) goto N_QuestStart2;
	mes "[ Strange Man ]";
	mes "...";
	close;
N_QuestComp:
	mes "[ Strange Man ]";
	mes "Thank you so much.";
	next;
	mes "Take these 5 Treasure Token's with you.";
	delitem 932,300;
	set #Treasure_Token,#Treasure_Token+5;
	F_THQPoints(5);
	set five_qset,0;
	set On_Quest,0;
	close;
N_QuestStart:
	mes "[ Strange Man ]";
	mes "You shall venture through the Pyramid.";
	mes "Once you reached the second floor, slay some skeletons of evil.";
	mes "Then bring me back some of their bones.";
	mes "I will need 300 pieces of them.";
	close;
N_QuestStart2:
	callfunc "six_qset2";
}
//5-3;
geffen,57,130,6	script	Blonde Girl	4_F_07,{
	if (five_qset == 3 && countitem(Bunch_Of_Flowers) > 49) goto N_QuestComp;
	if (five_qset == 3) goto N_QuestStart;
	mes "[ Blonde Girl ]";
	mes "I wonder what happened to my flowers";
	close;
N_QuestComp:
	mes "[ Blonde Girl ]";
	F_THQItemReq(Pet_Food, 50);
	mes "Oh are these flowers for me? Too bad I don't want them anymore...";
	mes " ";
	mes "You can keep them if you want.";
	next;
	mes "[ Blonde Girl ]";
	mes "Here take these 3 Treasure Tokens as a reward instead.";
	delitem(Bunch_Of_Flowers, 50); //Bouquet
	delitem(Pet_Food, 50);
	set five_qset,0;
	set On_Quest,0;
	set #Treasure_Token,#Treasure_Token+3;
	F_THQPoints(3);
	close;
N_QuestStart:
	mes "[ Blonde Girl ]";
	mes "Hello, did you bring me some flowers!?!";
	close;
}
//5-4;
gef_tower,49,27,6	script	Wizard#01	4_M_JOB_WIZARD,{
	if (five_qset == 4 && countitem(Transparent_Cloth) > 499) goto N_QuestComp;
	if (five_qset == 4) goto N_QuestStart;
	mes "[ Wizard ]";
	mes "Hello, have you seen my Whisper friend?";
	close;
N_QuestComp:
	mes "[ Wizard ]";
	mes "Thank you for helping me.";
	next;
	mes "[ Wizard ]";
	mes "Here take these 8 Treasure Tokens.";
	delitem 1059,500;
	set five_qset,0;
	set On_Quest,0;
	set #Treasure_Token,#Treasure_Token+8;
	F_THQPoints(8);
	close;
N_QuestStart:
	mes "[ Wizard ]";
	mes "Hello, the reason why I brought you here was because of a long time ago I made a friend, which happened to be a Whipser.";
	mes "He told me that he was always bullied by the other ghosts down there and I haven't seen him in a while.";
	mes "Thinking of the worse case here, I want vengance!";
	mes " ";
	mes "Bring me 500 Fabrics!";
	close;
}
///////Job list 6///////
//6-1;
moc_prydb1,47,132,6	script	Thief	1_M_02,{
	if (six_qset == 1 && countitem(Merchant_Box_3) > 0) goto N_QuestComp;
	if (six_qset == 1) goto N_QuestStart;
	mes "[ Thief ]";
	mes "Welcome to the Thief's Guild.";
	close;
N_QuestComp:
	mes "[ Thief ]";
	F_THQItemReq(Green_Apple, 50);
	mes "Thank you for this delivery.";
	next;
	mes "[ Thief ]";
	mes "Here take this 3 Treasure Tokens as a reward.";
	delitem 1083,1;
	delitem(Green_Apple, 50);
	set six_qset,0;
	set On_Quest,0;
	set #Treasure_Token,#Treasure_Token+3;
	F_THQPoints(3);
	close;
N_QuestStart:
	mes "[ Thief ]";
	mes "Where's my delivery?";
	close;
}
//6-2
function	script	six_qset2	{
	if (six_qset == 2 && countitem(Rotten_Bandage) > 299) goto N_QuestComp2;
	mes "[ Strange Man ]";
	mes "I have another quest for you.";
	mes "You must go into the pyramid.";
	mes "Fighting Mummys are your tasks and responsibility.";
	mes " ";
	mes "Kill them and bring me back their wrappings.";
	mes "It is 300 Rotten bandages I desire.";
	close;
N_QuestComp2:
	mes "[ Strange Man ]";
	mes "Thank you so much.";
	next;
	mes "[ Strange Man ]";
	mes "Take these 8 tokens with you.";
	delitem 930,300;
	set #Treasure_Token,#Treasure_Token+8;
	set On_Quest,0;
	set six_qset,0;
	F_THQPoints(8);
	close;
}
//6-3;
xmas,139,142,6	script	Chirach	1_M_02,{
	if (six_qset == 3 && countitem(Merchant_Box_3) > 0) goto N_QuestComp;
	if (six_qset == 3) goto N_QuestStart;
	mes "[ Chirach ]";
	mes "Welcome.";
	close;
N_QuestComp:
	mes "[ Chirach ]";
	F_THQItemReq(Meat_Veg_Skewer, 50);
	mes "Thank you for this delivery.";
	next;
	mes "[ Chirach ]";
	mes "Here take this 3 Treasure Tokens as a reward.";
	delitem 1083,1;
	delitem Meat_Veg_Skewer, 50;
	set six_qset,0;
	set On_Quest,0;
	set #Treasure_Token,#Treasure_Token+3;
	F_THQPoints(3);
	close;
N_QuestStart:
	mes "[ Chirach ]";
	mes "Where's my delivery?";
	close;
}
//6-4;
gef_tower,52,87,6	script	Wizard#02	4_M_JOB_WIZARD,{
	if (six_qset == 4 && countitem(Horseshoe) > 399) goto N_QuestComp;
	if (six_qset == 4) goto N_QuestStart;
	mes "[ Zuuzuu ]";
	mes "Hello, welcome to geffen tower.";
	close;
N_QuestComp:
	mes "[ Wizard ]";
	mes "Thank you for helping me.";
	next;
	mes "Here take these 10 Treasure Tokens.";
	delitem 944,400;
	set six_qset,0;
	set On_Quest,0;
	set #Treasure_Token,#Treasure_Token+10;
	F_THQPoints(10);
	next;
	mes "[ Zuuzuu ]";
	mes "Oh dear god!!!";
	mes "One of those evil monsters followed you up here, Kill it, Kill it!!!";
	next;
	monster "gef_tower",42,89,"Evil Nightmare",1061,1;
	close;
N_QuestStart:
	mes "[ Zuuzuu ]";
	mes "Hello, the reason I sent for a young adventurer was because of the problems we are having under the tower.";
	mes "There seem to be more ghosts day after day down there. What I need you to do is go down there and find these mosters we call Nightmares.";
	mes " ";
	mes "You must slay them and bring me 400 of there horse shoes.";
	close;
}
///////Job list 7///////
//7-1 goes to 8-1 using callfunc;
prontera,123,209,6	script	Little Girl#thq	4_F_KID3,{
	if (seven_qset == 1 && countitem(Apple_Juice) > 49) goto N_QuestComp;
	if (seven_qset == 1) goto N_QuestStart;
	if (eight_qset == 1) goto N_QuestStart2;
	mes "[ Girl ]";
	mes "Hello, " + (Sex ? "Sir" : "Madam") + " "+strcharinfo(PC_NAME)+".";
	close;
N_QuestComp:
	mes "[ Girl ]";
	mes "Thank you so much!";
	next;
	mes "[ Girl ]";
	mes "Have these 3 Treasure Tokens.";
	delitem 531,50;
	set seven_qset,0;
	set On_Quest,0;
	set #Treasure_Token,#Treasure_Token+3;
	F_THQPoints(3);
	close;
N_QuestStart:
	mes "[ Girl ]";
	mes "Hi mister person. Can you get me some apple juice?";
	mes "I want 50 of them.";
	close;
N_QuestStart2:
	callfunc "eight_qset1";
}
//7-2;
alberta,101,84,6	script	Charles	1_M_02,{
	if (seven_qset == 2 && countitem(Merchant_Box_2) > 0) goto N_QuestComp;
	if (seven_qset == 2) goto N_QuestStart;
	mes "[ Charles ]";
	mes "Hello "+strcharinfo(PC_NAME)+" welcome to Alberta.";
	close;
N_QuestComp:
	mes "[ Charles ]";
	F_THQItemReq(Axe, 1);
	mes "Thank you for this delivery.";
	next;
	mes "[ Charles ]";
	mes "Here take this 3 Treasure Token as a reward.";
	delitem 1082,1;
	delitem Axe, 1;
	set seven_qset,0;
	set On_Quest,0;
	set #Treasure_Token,#Treasure_Token+3;
	F_THQPoints(3);
	close;
N_QuestStart:
	mes "[ Charles ]";
	mes "So where is my package?";
	close;
}
//7-3
function	script	seven_qset-3	{
	if (seven_qset == 3 && countitem(Gold) > 499) goto N_QuestComp2;
	mes "[ Sewer Managment ]";
	mes "Well there have been reports of a Golden Thief Bug running around the bottem on the Culvert";
	mes " ";
	mes "Bring me 500 Gold Bar from him.";
	close;
N_QuestComp2:
	mes "[ Sewer Managment ]";
	mes "Thank you for helping me.";
	next;
	mes "[ Sewer Managment ]";
	mes "Here take these 10 Treasure Tokens.";
	delitem 969,500;
	set seven_qset,0;
	set On_Quest,0;
	set #Treasure_Token,#Treasure_Token+10;
	F_THQPoints(10);
	close;
}
//7-4;
alb2trea,94,102,6	script	Scarlet	4_F_JOB_ASSASSIN,{
	if (seven_qset == 4 && countitem(Saber_) > 0) goto N_QuestComp;
	if (seven_qset == 4) goto N_QuestStart;
	mes "[ Scarlet ]";
	mes "Sorry, busy.";
	close;
N_QuestComp:
	mes "[ Scarlet ]";
	mes "Thank you for helping me, I presume the worse.";
	next;
	mes "[ Scarlet ]";
	mes "Here take these 5 Treasure Tokens.";
	delitem 1127,1;
	set seven_qset,0;
	set On_Quest,0;
	set #Treasure_Token,#Treasure_Token+5;
	F_THQPoints(5);
	close;
N_QuestStart:
	mes "[ Scarlet ]";
	mes "Good your here. Ok there are reports of an old captain named Drake abored this ship. Kill Him!";
	mes " ";
	mes "Bring me his Saber as proof!";
	close;
}
///////Job list 8///////
//8-1
function	script	eight_qset1	{
	if (eight_qset == 1 && countitem(Banana_Juice) > 49) goto N_QuestComp2;
	mes "[ Girl ]";
	mes "Hi mister person. Can you get me some Banana juice?";
	mes "I want 50 of them.";
	close;
N_QuestComp2:
	mes "[ Girl ]";
	mes "Thank you so much!";
	next;
	mes "[ Girl ]";
	mes "Have these 3 Treasure Tokens.";
	delitem 532,50;
	set eight_qset,0;
	set On_Quest,0;
	set #Treasure_Token,#Treasure_Token+3;
	F_THQPoints(3);
	close;
}
//8-2;
morocc,165,55,6	script	Klye	1_M_02,{
	if (eight_qset == 2 && countitem(Merchant_Box_1) > 0) goto N_QuestComp;
	if (eight_qset == 2) goto N_QuestStart;
	mes "[ Klye ]";
	mes "Hello "+strcharinfo(PC_NAME)+".";
	close;
N_QuestComp:
	mes "[ Klye ]";
	F_THQItemReq(Falchion, 1);
	mes "Thank you for this delivery.";
	next;
	mes "[ Klye ]";
	mes "Here take this 3 Treasure Tokens as a reward.";
	delitem 1081,1;
	delitem Falchion, 1;
	set eight_qset,0;
	set On_Quest,0;
	set #Treasure_Token,#Treasure_Token+3;
	F_THQPoints(3);
	close;
N_QuestStart:
	mes "[ Kyle ]";
	mes "So where's my Delivery";
	close;

}
//8-3;
prt_maze02,103,86,6	script	Zack	4_M_CRU,{
	if (eight_qset == 3 && countitem(Evil_Horn) > 799) goto N_QuestComp;
	if (eight_qset == 3) goto N_QuestStart;
	mes "[ Zack ]";
	mes "Hello, have you seen my Whisper friend?";
	close;
N_QuestComp:
	mes "[ Zack ]";
	mes "Thank you for helping me, I presume the worse.";
	next;
	mes "[ Zack ]";
	mes "Here take these 15 Treasure Tokens.";
	delitem 923,800;
	set eight_qset,0;
	set On_Quest,0;
	set #Treasure_Token,#Treasure_Token+15;
	F_THQPoints(15);
	close;
N_QuestStart:
	mes "[ Zack ]";
	mes "Hello,the reason why I brought you here was because of a very strange monster known as Baphomet.";
	mes "People say that Baphomet guilds the gate to the under-world but I don't belive them, Kill Baphomet!";
	mes " ";
	mes "Bring me 800 Evil Horn!";
	close;
}
//8-4;
payon,136,129,6	script	Flower	4_F_KID2,{
	if (eight_qset == 4 && countitem(Glass_Bead) > 99) goto N_QuestComp;
	if (eight_qset == 4) goto N_QuestStart;
	mes "[ Flower ]";
	mes "Sorry I'm waiting for someone. You will have to come back later.";
	close;
N_QuestComp:
	mes "[ Flower ]";
	mes "Thank you for helping me, I presume the worse.";
	next;
	mes "[ Flower ]";
	mes "Here take these 5 Treasure Tokens.";
	delitem 746,100;
	set eight_qset,0;
	set On_Quest,0;
	set #Treasure_Token,#Treasure_Token+5;
	F_THQPoints(15);
	close;
N_QuestStart:
	mes "[ Flower ]";
	mes "Help, help I have lost my Beads!! My brother Bush is going to kill me please help";
	mes " ";
	mes "Bring me 100 Glass Beads!";
	close;
}
///////Job list 9///////
//9-1;
geffen_in,168,124,6	script	Mage	1_M_02,{
	if (nine_qset == 1 && countitem(Merchant_Box_2) > 0) goto N_QuestComp;
	if (nine_qset == 1) goto N_QuestStart;
	mes "[ Mage ]";
	mes "Hello "+strcharinfo(PC_NAME)+" welcome to the Mage Guild.";
	close;
N_QuestComp:
	mes "[ Mage ]";
	F_THQItemReq(Arrow, 50);
	mes "Thank you for this delivery. Sorry about the smell, Its a box of Toad Tounges";
	next;
	mes "[ Mage ]";
	mes "Here take this 3 Treasure Tokens as a reward.";
	delitem 1082,1;
	delitem Arrow, 50;
	set nine_qset,0;
	set On_Quest,0;
	set #Treasure_Token,#Treasure_Token+3;
	F_THQPoints(3);
	close;
N_QuestStart:
	mes "[ Mage ]";
	mes "Hello "+strcharinfo(PC_NAME)+", Where is my box of Toad Tounges?.";
	close;
}
//9-2;
pay_arche,98,74,6	script	School Girl	4_F_KID2,{
	if (nine_qset == 2 && countitem(Long_Hair) > 699) goto N_QuestComp;
	if (nine_qset == 2) goto N_QuestStart;
	mes "[ School Girl ]";
	mes "Sorry I'm waiting for someone, you will have to come back later";
	close;
N_QuestComp:
	mes "[ School Girl ]";
	mes "Thank you for helping me.";
	next;
	mes "[ School Girl ]";
	mes "Here take these 10 Treasure Tokens.";
	delitem 1020,700;
	set nine_qset,0;
	set On_Quest,0;
	set #Treasure_Token,#Treasure_Token+10;
	F_THQPoints(10);
	close;
N_QuestStart:
	mes "[ School Girl ]";
	mes "Help, Well what we know about Payon is that a while ago there was a freak fire that burnt down the old school.";
	next;
	mes "[ School Girl ]";
	mes "The strange thing about what happened was that the children inside did not seem to die from the flames. They have taken over the entire 3rd floor of Payon Cave.";
	mes " ";
	mes "Bring me 700 Black Hair!";
	close;
}
//9-3
payon_in02,19,33,6	script	Jack	2_M_ALCHE,{
	if (nine_qset == 3 && countitem(Fox_Tail) > 349) goto N_QuestComp;
	if (nine_qset == 3) goto N_QuestStart;
	if (nine_qset == 4) goto N_QuestStart2;
	mes "[ Jack ]";
	mes "Sorry I'm waiting for someone, you will have to come back later";
	close;
N_QuestComp:
	mes "[ Jack ]";
	mes "Thank you for helping me.";
	next;
	mes "[ Jack ]";
	mes "Here take these 10 Treasure Tokens.";
	delitem 1022,350;
	set nine_qset,0;
	set On_Quest,0;
	set #Treasure_Token,#Treasure_Token+10;
	F_THQPoints(10);
	close;
N_QuestStart:
	mes "[ Jack ]";
	mes "Well I don't know much about this, it has to do with the deepest regions of Payon Cave. We don't know much because no one ever seems to make it back alive. We suspect a monster we call the Moonlight Flower";
	mes " ";
	mes "Bring me back 350 Nine Tales!";
	close;
N_QuestStart2:
//9-4
	if (nine_qset == 4 && countitem(Danggie) > 299) goto N_QuestComp2;
	mes "[ Jack ]";
	mes "Hello, we need you to investigate some crap in the 3rd level of payon.";
	mes " ";
	mes "Bring me back 300 Daenggie's.";
	close;
N_QuestComp2:
	mes "[ Jack ]";
	mes "Thank you for helping me.";
	next;
	mes "[ Jack ]";
	mes "Here take these 8 Treasure Tokens.";
	delitem 901,300;
	set nine_qset,0;
	set On_Quest,0;
	set #Treasure_Token,#Treasure_Token+8;
	F_THQPoints(8);
	close;
}
///////Job list 10///////
//10-1
morocc,193,51,6	script	Kreg	1_M_02,{
	if (ten_qset == 1 && countitem(Merchant_Box_2) > 0) goto N_QuestComp;
	if (ten_qset == 1) goto N_QuestStart;
	mes "[ Kreg ]";
	mes "Hello "+strcharinfo(PC_NAME)+" welcome to Morroc.";
	close;
N_QuestComp:
	mes "[ Kreg ]";
	F_THQItemReq(Silver_Arrow, 50);
	mes "Thank you for this delivery.";
	next;
	mes "[ Kreg ]";
	mes "Here take these 3 Treasure Tokens as a reward.";
	delitem 1082,1;
	delitem Silver_Arrow, 50;
	set ten_qset,0;
	set On_Quest,0;
	set #Treasure_Token,#Treasure_Token+3;
	F_THQPoints(3);
	close;
N_QuestStart:
	mes "[ Kreg ]";
	mes "So where's my Delivery";
	close;
}
//10-2;
pay_fild10,145,252,6	script	Man#02	2_M_DYEINGER,{
	if (ten_qset == 2 && countitem(Tigers_Skin) > 49) goto N_QuestComp;
	if (ten_qset == 2) goto N_QuestStart;
	mes "[ Man ]";
	mes "Sorry I'm waiting for someone, you will have to come back later";
	close;
N_QuestComp:
	mes "[ Man ]";
	mes "Thank you for helping me.";
	next;
	mes "[ Man ]";
	mes "Here take these 8 Treasure Tokens.";
	delitem 1029,50;
	set ten_qset,0;
	set On_Quest,0;
	set #Treasure_Token,#Treasure_Token+8;
	F_THQPoints(8);
	close;
N_QuestStart:
	mes "[ Man ]";
	mes "Tony the Tiger is on Crack! He must be stopped, KILL HIM!";
	mes " ";
	mes "Bring me back 50 Tiger's Skin!";
	close;
}
//10-3;
cmd_fild08,328,349,4	script	Caral	2_M_SWORDMASTER,{
	if (ten_qset == 3 && countitem(Thin_N_Long_Tongue) > 399) goto N_QuestComp;
	if (ten_qset == 3) goto N_QuestStart;
	mes "[ Caral ]";
	mes "Sorry I'm waiting for someone, you will have to come back later.";
	close;
N_QuestComp:
	mes "[ Caral ]";
	mes "Thank you for helping me.";
	next;
	mes "[ Caral ]";
	mes "Here take these 10 Treasure Tokens.";
	delitem 1015,400;
	set ten_qset,0;
	set On_Quest,0;
	set #Treasure_Token,#Treasure_Token+10;
	F_THQPoints(10);
	close;
N_QuestStart:
	mes "[ Caral ]";
	mes "Phreeoni the Pink Fluff is terrorizing little novices! He must be stoped, KILL HIM!";
	mes " ";
	mes "Bring me back 400 Tounge!";
	close;
}
//10-4
cmd_fild08,341,88,5	script	Jeni	4_F_JOB_HUNTER,{
	if (ten_qset == 4 && countitem(Mothers_Nightmare) > 49) goto N_QuestComp;
	if (ten_qset == 4) goto N_QuestStart;
	mes "[ Jeni ]";
	mes "Sorry I'm waiting for someone, You will have to come back later";
	close;
N_QuestComp:
	mes "[ Jeni ]";
	mes "Thank you for helping me.";
	next;
	mes "[ Jeni ]";
	mes "Here take these 8 Treasure Tokens.";
	delitem 7020,50;
	set ten_qset,0;
	set On_Quest,0;
	set #Treasure_Token,#Treasure_Token+8;
	F_THQPoints(8);
	close;
N_QuestStart:
	mes "[ Jeni ]";
	mes "This half naked freak need an army to take down, now its your job,good luck.";
	mes " ";
	mes "Bring me back 50 Mother's Nightmare!";
	close;
}
