//	~~~~~ Please use this latest int__ function that support negative numbers ~~~~~
function	script	int__	{
	.@i = getstrlen(.@str$ = getarg(0)) -3;
	.@is_negative = charat(.@str$, 0) == "-";
	while (.@i > .@is_negative) {
		.@str$ = insertchar(.@str$, ",", .@i);
		.@i -= 3;
	}
	return .@str$;
}

//===== eAthena Script ======================================
//= Private MVP/Branch Room
//===== By: ===============================================
//= by ~AnnieRuru~
//===== Current Version: ======================================
//= 1.4c
//===== Compatible With: =====================================
//= hercules 2014-02-15
//===== Description: =========================================
//= Player can rent MVP room for the player him/herself, for party or for guilds
//===== Topic =================================================
//= http://www.eathena.ws/board/index.php?showtopic=187654
//= http://rathena.org/board/topic/72376-mvp-summon-script
//===== Additional Comments: ==================================
//= 1.0 
//= ---- break the tradition which a script only for a player, or only for a party.
//=      now 1 room can be use for party and another room can use for guilds.
//= ---- timeout feature to prevent player owns the room indefinitely,
//=      by create a new account and sit/@at'ing inside overnight.
//= ---- can disable mvp/boss summon via configuration and becomes a branch room script.
//= ---- a double check to prevent players rent all the rooms for himself.
//= 1.0a
//= ---- fix a critial bug that the time count too fast -_-"
//= 1.1
//= ---- added item cost to rent or to summon
//= ---- added a config to limit summoning per session
//= ---- added flood control option
//= 1.2
//= ---- rewrite the waitingroom counter
//= ---- optimize the script in a way can add custom summon group
//= ---- add config to kill the monsters if the room just being left empty
//= ---- add GM can kick room in use
//= ---- add able to spawn in numbers
//= ---- add limitspawn can configure to negative to limit spawn in that group instead of individual one
//= 1.3
//= ---- fix chatroom countdown issue due to rev13269
//= ---- fix a bug if 2 people rent a room at same time, the later 1 will get the room
//= ---- add a feature so the GM can know how long the room has rented or abandoned
//= 1.4
//= ---- update with new mvp and mini bosses
//= ---- fix an exploit if server allow to use @mail, player can send item/Zeny away to prevent item/Zeny deletion when registering the room
//= ---- players die inside mvp room shouldn't lose exp
//= 1.4a
//= ---- fix this to use in rathena
//= 1.4b
//= ---- fix this to use in hercules
//========================================================

//	This is the shop for this Branch room IF you already enable it. Can sell whatever things you want.
-	shop	MVP room#branch	FAKE_NPC,12109:50000,604:100000,12103:1000000

-	script	DB Room Helper	FAKE_NPC,{
	goto L_Start;

OnInit:
	getmapxy .@map$, .@x, .@y, 1;
	if (.@map$ == "") {

//	Config ---------------------------------------------------------------------------------------

	// Time for rent a room IN MINUTES. When time out, players inside the room will kick out. Do Not set this as 0
	set .timeout, 60;
	// if the room left empty for # minutes, will be treated as give up the room. Do Not set this as 0
	set .nobodygiveup, 5;

	// NOTE : The script only search item OR Zeny. if you specify item amount, then it will ask for the item. If item amount is 0, then it will ask for Zeny.

	// the cost to rent a room
	set .rentitemid, 40000; // item id use for rent a room - 674 - mithil coin
	set .rentitemamount, 0; // amount of items to rent a room
	set .rentcost, 10000000; // otherwise, Zeny cost to rent a room

	// limit each room can only summon 1 monster at a time. (only the Summoning option)
	// Turn it off (0) means the player can summon a lot of monsters as long as the player has enough Zeny/item. High rate server players love the room with a lot MVPs
	// Turn it on (1) means the player have to kill existing monster before can summon a new one. Low rate server player prefer to take out MVP 1 by 1
	set .floodcontrol, 0;

	// if .floodcontrol is turn off, your players might experience lag if they summoned too many MVPs
	// so what is the maximum input to limit your players summon too many ?
	set .inputlimit, 30;

	// If the room has left over monsters while nobody in the room and the room not give up yet, shall we kill monsters in empty room ?
	set .killmonster, 0; // Default is yes
	
	// Fee for clearing out the monsters in Private DB Room.
	set .clearoutfee, 10000000;	// Default is 0z

	//	Options menu setting for DB Room Helper NPC.
	set .@menu[0], 1; // Turn Heal option On/Off
	set .@menu[1], 0; // Turn Group 1 summons On/Off -> MVP
	set .@menu[2], 0; // Turn Group 2 summons On/Off -> mini boss
	set .@menu[3], 0; // Turn Group 3 summons On/Off
	set .@menu[4], 0; // Turn Group 4 summons On/Off
	set .@menu[5], 0; // Turn Group 5 summons On/Off
	set .@menu[6], 0; // Turn Group 6 summons On/Off
	set .@menu[7], 0; // Turn Group 7 summons On/Off
	set .@menu[8], 0; // Turn Group 8 summons On/Off
	set .@menu[9], 0; // Turn Group 9 summons On/Off
	set .@menu[10], 1; // Sell shop items options On/Off (shop npc above)
	set .@menu[11], 1; // Clear all mobs inside the room.

	//	set respawn point when they leave the room. Obviously warp to the Private MVP Room Warper npc
	set .respawnmap$, "prontera"; // Note : "SavePoint" does NOT work
	set .respawnx, 161;
	set .respawny, 148;

	// The minimum GM level can kick a room in use
	set .gmlvlkick, 80;

	// .limitspawn in previous revision changed to .grouplimit .
	// it is for limit each monster spawn per session, prevent them only killing same monster again and again
	// Now you can configure one group has limited summon, and another group has unlimited summon
	// Tips: if you server has an insane custom MVP, you can put your custom mob to Group 3~9 with insane item cost, and limit only 1 summon per session
	// .grouplimit use amount, means if group1limit set to 10, then each session can only summon up to 10 amount of that kind of monster. 0 is unlimited

	// ---------
	// Group 1 -> MVP 
	// ---------
	set .group1name$, "MVP"; // Group 1 name
	set .group1itemid, 674; // item id use for summon any Group 1 monster - 674 - mithil coin
	set .group1itemamount, 0; // amount of items to summon a Group 1 monster
	set .group1cost, 100000; // if no item is specify, Zeny cost to summon a Group 1 monster
	set .group1limit, 0; // limit of summon of Group 1 monster per session, prevent them only killing same monster again and again
	setarray .group1id,
		1511,//	Amon Ra
		1647,// Assassin Cross Eremes
		1785,//	Atroce
		1630,//	Bacsojin
		1039,//	Baphomet
		1874,//	Beelzebub
		1272,//	Dark Lord
		1719,//	Datale
		1046,//	Doppelgangger
		1389,//	Dracula
		1112,//	Drake
		1115,//	Eddga
		1418,//	Evil Snake Lord
		1871,//	Fallen Bishop
		1252,//	Garm
		1768,//	Gloom Under Night
		1086,//	Golden Thief Bug
		1885,//	Gopinich
		1649,// High Priest Magaleta
		1651,// High Wizard Katrinn
		1832,//	Ifrit
		1492,//	Incantation Samurai
		1734,//	Kiel D-01
		1251,//	Knight of Windstorm
		1779,//	Ktullanux
	//	1980,// Kubkin (I think this mvp is still new)
		1688,//	Lady Tanee
		1646,// Lord Knight Seyren
		1373,//	Lord of Death
		1147,//	Maya
		1059,//	Mistress
		1150,//	Moonlight Flower
		1087,//	Orc Hero
		1190,//	Orc Lord
		1038,//	Osiris
		1157,//	Pharaoh
		1159,//	Phreeoni
		1623,//	RSX 0806
		1650,// Sniper Shecil
		1583,//	Tao Gunka
		1708,//	Thanatos
		1312,//	Turtle General
		1751,//	Valkyrie Randgris
		1685,// Vesper
		1648,// Whitesmith Harword
		1917,// Wounded Morroc
		1658;//	Ygnizem

	// ---------
	// Group 2 -> mini boss
	// ---------
	set .group2name$, "mini boss"; // Group 2 name
	set .group2itemid, 674; // item id use for summon any Group 2 monster - 674 - mithil coin
	set .group2itemamount, 0; // amount of items to summon a Group 2 monster
	set .group2cost, 10000; // if no item is specify, Zeny cost to summon a Group 2 monster
	set .group2limit, 0; // limit of summon of Group 2 monster per session, prevent them only killing same monster again and again
	setarray .group2id,
		1096,// Angeling
		1388,// Archangeling
		1795,// Bloody Knight
		1830,// Bow Guardian
		1839,// Byorgue
		1309,// Cat O' Nine Tail
		1283,// Chimera
		1302,// Dark Illusion
		1198,// Dark Priest
		1582,// Deviling
		1091,// Dragon Fly
		1093,// Eclipse
		1205,// Executioner
		1783,// Galion
		1592,// Gangster
		1120,// Ghostring
		1259,// Gryphon
		1720,// Hydro
		1090,// Mastering
		1289,// Maya Purple
		1262,// Mutant Dragon
		1203,// Mysteltainn
		1870,// Necromancer
		1295,// Owl Baron
		1829,// Sword Guardian
		1204,// Tirfing
		1089,// Toad
		1092,// Vagabond Wolf
		1765;// Valkyrie

	// ---------
	// Group 3
	// ---------
	set .group3name$, "Poring-Family"; // Group 3 name
	set .group3itemid, 12109; // item id use for summon any Group 3 monster - 12109 - Poring box
	set .group3itemamount, 1; // amount of items to summon a Group 3 monster
	set .group3cost, 0; // if no item is specify, Zeny cost to summon a Group 3 monster
	set .group3limit, -5; // limit of summon of Group 3 monster per session, prevent them only killing same monster again and again
	setarray .group3id,
		1002,// Poring
		1113,// Drops
		1031,// Poporing
		1242,// Marin
		1062,// Santa Poring
		1613,// Metaling
		1784,// Stapo
		1090,// Mastering
		1096,// Angeling
		1120,// Ghostring
		1582,// Deviling
		1388,// Arc Angeling
		1502;// Pori Pori

	// ---------
	// Group 4
	// ---------
	set .group4name$, ""; // Group 4 name
	set .group4itemid, 0; // item id use for summon any Group 4 monster
	set .group4itemamount, 0; // amount of items to summon a Group 4 monster
	set .group4cost, 0; // if no item is specify, Zeny cost to summon a Group 4 monster
	set .group4limit, 0; // limit of summon of Group 4 monster per session, prevent them only killing same monster again and again
	setarray .group4id,
		1001,
		1002;

	// ---------
	// Group 5
	// ---------
	set .group5name$, ""; // Group 5 name
	set .group5itemid, 0; // item id use for summon any Group 5 monster
	set .group5itemamount, 0; // amount of items to summon a Group 5 monster
	set .group5cost, 0; // if no item is specify, Zeny cost to summon a Group 5 monster
	set .group5limit, 0; // limit of summon of Group 5 monster per session, prevent them only killing same monster again and again
	setarray .group5id,
		1001,
		1002;

	// ---------
	// Group 6
	// ---------
	set .group6name$, ""; // Group 6 name
	set .group6itemid, 0; // item id use for summon any Group 6 monster
	set .group6itemamount, 0; // amount of items to summon a Group 6 monster
	set .group6cost, 0; // if no item is specify, Zeny cost to summon a Group 6 monster
	set .group6limit, 0; // limit of summon of Group 6 monster per session, prevent them only killing same monster again and again
	setarray .group6id,
		1001,
		1002;

	// ---------
	// Group 7
	// ---------
	set .group7name$, ""; // Group 7 name
	set .group7itemid, 0; // item id use for summon any Group 7 monster
	set .group7itemamount, 0; // amount of items to summon a Group 7 monster
	set .group7cost, 0; // if no item is specify, Zeny cost to summon a Group 7 monster
	set .group7limit, 0; // limit of summon of Group 7 monster per session, prevent them only killing same monster again and again
	setarray .group7id,
		1001,
		1002;

	// ---------
	// Group 8
	// ---------
	set .group8name$, ""; // Group 8 name
	set .group8itemid, 0; // item id use for summon any Group 8 monster
	set .group8itemamount, 0; // amount of items to summon a Group 8 monster
	set .group8cost, 0; // if no item is specify, Zeny cost to summon a Group 8 monster
	set .group8limit, 0; // limit of summon of Group 8 monster per session, prevent them only killing same monster again and again
	setarray .group8id,
		1001,
		1002;

	// ---------
	// Group 9
	// ---------
	set .group9name$, ""; // Group 9 name
	set .group9itemid, 0; // item id use for summon any Group 9 monster
	set .group9itemamount, 0; // amount of items to summon a Group 9 monster
	set .group9cost, 0; // if no item is specify, Zeny cost to summon a Group 9 monster
	set .group9limit, 0; // limit of summon of Group 9 monster per session, prevent them only killing same monster again and again
	setarray .group9id,
		1001,
		1002;

//	Config Ends ------------------------------------------------------------------------

		if (.timeout == 0) set .timeout, 60;
		if (.nobodygiveup == 0) set .nobodygiveup, 5;
		if (.inputlimit < 1) set .inputlimit, 1;

		if (.rentitemid && .rentitemamount) {
			if (getitemname(.rentitemid) == "null") {
				consolemes(CONSOLEMES_WARNING, "Private MVP Room: Rent a room is using invalid item id.");
			}
		}
		set .@i, 1;
		while (.@i <= 9) {
			if (.@menu[.@i] && getd(".group"+ .@i +"itemid") && getd(".group"+ .@i +"itemamount")) {
				if (getitemname(getd(".group"+ .@i +"itemid")) == "null") {
					consolemes(CONSOLEMES_WARNING, "Private MVP Room: Group no. "+ .@i +" is using invalid item id.");
				}
			}
			set .@i, .@i +1 ;
		}
		set .menu$, ((.@menu[0] ? "Heal":"") + ":" + (.@menu[1] ? "Summon "+ .group1name$:"") + ":" + (.@menu[2] ? "Summon "+ .group2name$:"") + ":" + (.@menu[3] ? "Summon "+ .group3name$:"") + ":" + (.@menu[4] ? "Summon "+ .group4name$:"") + ":" + (.@menu[5] ? "Summon "+ .group5name$:"") + ":" + (.@menu[6] ? "Summon "+ .group6name$:"") + ":" + (.@menu[7] ? "Summon "+ .group7name$:"") + ":" + (.@menu[8] ? "Summon "+ .group8name$:"") + ":" + (.@menu[9] ? "Summon "+ .group9name$:"") + ":" + (.@menu[10] ? "Buy branches":"") + ":" + (.@menu[11] ? "Clear-up monsters":"") + ":" + ("Leave the room") + ":" + ("Give up the room"));

		set .@i, 1;
		while (.@i <= 9) {
			setd ".group"+ .@i +"idsize", getarraysize(getd(".group"+ .@i +"id"));
			if (.@menu[.@i] && getd(".group"+ .@i +"limit") <= 0) {
				set .@j, 0;
				while (.@j < getd(".group"+ .@i +"idsize")) {
					setd ".group"+ .@i +"menu$", getd(".group"+ .@i +"menu$") + getmonsterinfo(getd(".group"+ .@i +"id["+ .@j +"]"), 0) +":";
					set .@j, .@j +1 ;
				}
			}
			set .@i, .@i +1 ;
		}
	}
	else {
		setmapflag .@map$, MF_NOWARPTO;
	//	setmapflag .@map$, MF_NOTELEPORT;
		setmapflag .@map$, MF_NOMEMO;
		setmapflag .@map$, MF_NOSAVE;
		setmapflag .@map$, MF_NOPENALTY;
	//	setmapflag .@map$, MF_NOWARP;
	//	setmapflag .@map$, MF_NORETURN;
	//	setmapflag .@map$, MF_NOMOBLOOT;
	//	setmapflag .@map$, MF_NOMVPLOOT;
	//	setmapflag .@map$, MF_MONSTER_NOTELEPORT;
	//	setmapflag .@map$, MF_NOICEWALL;
	//	setmapflag .@map$, MF_NOBASEEXP;
	//	setmapflag .@map$, MF_NOJOBEXP;
	//	setmapflag .@map$, MF_NOVENDING;
		sleep 1;
		mapannounce .@map$, "Admin has refresh the server, please register the room again.", 1;
		mapwarp .@map$, .respawnmap$, .respawnx, .respawny;
	}
	end;

L_Start: // I hate gotos ... but ...
	set .@dif, strnpcinfo(2);
	if (.remind[.@dif] == 0) {
		set .remind[.@dif], 1;
		initnpctimer;
	}
	mes "[ DB Room Helper ]";
	mes "Hi, what can I do for you ?";
	next;
	switch (select(.menu$)) {
		case 1:
			mes "[ DB Room Helper ]";
			if (mobcount("this","") > 0) {
				mes "I cannot offer heal service when there are monsters around.";
				close;
			}
			sc_end SC_STONE;
			sc_end SC_SLOWDOWN;
			sc_end SC_FREEZE;
			sc_end SC_SLEEP;
			sc_end SC_CURSE;
			sc_end SC_SILENCE;
			sc_end SC_CONFUSION;
			sc_end SC_BLIND;
			sc_end SC_BLEEDING;
			sc_end SC_DECREASEAGI;
			sc_end SC_POISON;
			sc_end SC_HALLUCINATION;
			sc_end SC_STRIPWEAPON;
			sc_end SC_STRIPARMOR;
			sc_end SC_STRIPHELM;
			sc_end SC_STRIPSHIELD;
			sc_end SC_CHANGEUNDEAD;
			sc_end SC_ORCISH;
			sc_end SC_BERSERK;
			sc_end SC_SKE;
			sc_end SC_SWOO;
			sc_end SC_SKA;
			percentheal 100,100;
			//specialeffect2 EF_HEAL;
			mes "You have completely healed.";
			close;
		default:
			set .@group, @menu -1;
			if (.floodcontrol && mobcount("this","") > 0) {
				mes "[ DB Room Helper ]";
				mes "I cannot summon another monster when there are monsters around.";
				close;
			}
			else if (getd(".group"+ .@group +"itemid") && getd(".group"+ .@group +"itemamount")) {
				mes "[ DB Room Helper ]";
				mes "The cost to summon a "+ getd(".group"+ .@group +"name$") +" is "+ getd(".group"+ .@group +"itemamount") +" "+ getitemname(getd(".group"+ .@group +"itemid")) +".";
				if (getd(".group"+ .@group +"limit") < 0)
					mes "("+((~getd(".group"+ .@group +"limit")+1 - getd(".group"+ .@group +"limit"+ .@dif) <= 0)?0:(~getd(".group"+ .@group +"limit")+1 - getd(".group"+ .@group +"limit"+ .@dif)))+") more summons for this group.";
				next;
			}
			else if (getd(".group"+ .@group +"cost")) {
				mes "[ DB Room Helper ]";
				mes "The cost to summon a "+ getd(".group"+ .@group +"name$") +" is "+ callfunc("int__", getd(".group"+ .@group +"cost")) +" Zeny.";
				if (getd(".group"+ .@group +"limit") < 0)
					mes "("+((~getd(".group"+ .@group +"limit")+1 - getd(".group"+ .@group +"limit"+ .@dif) <= 0)?0:(~getd(".group"+ .@group +"limit")+1 - getd(".group"+ .@group +"limit"+ .@dif)))+") more summons for this group.";
				next;
			}
			else if (getd(".group"+ .@group +"limit") < 0) {
				mes "[ DB Room Helper ]";
				mes "("+((~getd(".group"+ .@group +"limit")+1 - getd(".group"+ .@group +"limit"+ .@dif) <= 0)?0:(~getd(".group"+ .@group +"limit")+1 - getd(".group"+ .@group +"limit"+ .@dif)))+") more summons for this group.";
				next;
			}
			if (getd(".group"+ .@group +"limit") < 0 && getd(".group"+ .@group +"limit"+ .@dif) >= ~getd(".group"+ .@group +"limit")+1) {
				mes "[ DB Room Helper ]";
				mes "I'm sorry, but you can't summon any more monster for this group.";
				close;
			}
			else if (getd(".group"+ .@group +"limit") > 0) {
				for (set .@i, 0; .@i < getd(".group"+ .@group +"idsize"); set .@i, .@i +1)
					set .@menu$, .@menu$ +((getd(".group"+ .@group +"limit"+ .@dif +"["+ .@i +"]") >= getd(".group"+ .@group +"limit"))?"^999999":"^000000")+ getmonsterinfo(getd(".group"+ .@group +"id["+ .@i +"]"), 0) +" ("+ ((getd(".group"+ .@group +"limit") - getd(".group"+ .@group +"limit"+ .@dif +"["+ .@i +"]") <= 0)?0:(getd(".group"+ .@group +"limit") - getd(".group"+ .@group +"limit"+ .@dif +"["+ .@i +"]"))) +")"+":";
				set .@menu, select(.@menu$) -1;
			}
			else
				set .@menu, select(getd(".group"+ .@group +"menu$")) -1;
			mes "[ DB Room Helper ]";
			if (.floodcontrol == 0 && .inputlimit > 1) {
				mes "Input an amount of monsters to summon.";
				next;
				input .@amount;
				if (.@amount == 0) close;
				else if (.@amount > .inputlimit)
					set .@amount, .inputlimit;
				mes "[ DB Room Helper ]";
			}
			else
				set .@amount, 1;
			if (getd(".group"+ .@group +"itemid") && getd(".group"+ .@group +"itemamount")) {
				if (countitem(getd(".group"+ .@group +"itemid")) < getd(".group"+ .@group +"itemamount") * .@amount) {
					mes "You don't have enough "+ getitemname(getd(".group"+ .@group +"itemid")) +" to summon a "+ getd(".group"+ .@group +"name$") +".";
					close;
				}
			}
			else if (getd(".group"+ .@group +"cost")) {
				if (Zeny < getd(".group"+ .@group +"cost") * .@amount) {
					mes "You don't have enough Zeny to summon a "+ getd(".group"+ .@group +"name$") +".";
					close;
				}
			}
			if (.floodcontrol && mobcount("this","") > 0) {
				mes "I cannot summon another monster when there are monsters around.";
				close;
			}
			else if (getd(".group"+ .@group +"limit") > 0) {
				if (getd(".group"+ .@group +"limit"+ .@dif +"["+ .@menu +"]") >= getd(".group"+ .@group +"limit")) {
					mes "I'm sorry, but you already summoned that monster too much. Try summon another.";
					close;
				}
				else if (getd(".group"+ .@group +"limit"+ .@dif +"["+ .@menu +"]") + .@amount > getd(".group"+ .@group +"limit")) {
					mes "The amount you input is more than the limit you can summon. Try reduce the amount.";
					close;
				}
			}
			else if (getd(".group"+ .@group +"limit") < 0) {
				if (getd(".group"+ .@group +"limit"+ .@dif) >= ~getd(".group"+ .@group +"limit")+1) {
					mes "I'm sorry, but you can't summon any more monster for this group.";
					close;
				}
				else if (getd(".group"+ .@group +"limit"+ .@dif) + .@amount > ~getd(".group"+ .@group +"limit")+1) {
					mes "The amount you input is more than the limit you can summon. Try reduce the amount.";
					close;
				}
			}
			mes "Summoning "+ .@amount +" "+ getmonsterinfo(getd(".group"+ .@group +"id["+ .@menu +"]"), 0) +".";
			mes "Ok, get ready ?";
			close2;
			if (.floodcontrol && mobcount("this","") > 0) end;
			if (getd(".group"+ .@group +"itemid") && getd(".group"+ .@group +"itemamount")) {
				if (countitem(getd(".group"+ .@group +"itemid")) < getd(".group"+ .@group +"itemamount") * .@amount) end;
				delitem getd(".group"+ .@group +"itemid"), getd(".group"+ .@group +"itemamount") * .@amount;
			}
			else if (getd(".group"+ .@group +"cost")) {
				if (Zeny < getd(".group"+ .@group +"cost") * .@amount) end;
				set Zeny, Zeny - getd(".group"+ .@group +"cost") * .@amount;
			}
			if (getd(".group"+ .@group +"limit") > 0) {
				if (getd(".group"+ .@group +"limit"+ .@dif +"["+ .@menu +"]") + .@amount > getd(".group"+ .@group +"limit")) end;
				setd ".group"+ .@group +"limit"+ .@dif +"["+ .@menu +"]", getd(".group"+ .@group +"limit"+ .@dif +"["+ .@menu +"]") + .@amount;
			}
			else if (getd(".group"+ .@group +"limit") < 0) {
				if (getd(".group"+ .@group +"limit"+ .@dif) + .@amount > ~getd(".group"+ .@group +"limit")+1) end;
				setd ".group"+ .@group +"limit"+ .@dif, getd(".group"+ .@group +"limit"+ .@dif) + .@amount;
			}
			monster "this", 0, 0, "--ja--", getd(".group"+ .@group +"id["+ .@menu +"]"), .@amount;
			end;
		case 11:
			if (mobcount("this","") > 0) {
				mes "[ DB Room Helper ]";
				mes "I cannot offer this service when there are monsters around.";
				close;
			}
			close2;
			callshop "MVP room#branch", 0;
			end;
		case 12:
			if (mobcount("this","") <= 0) {
				mes "[ DB Room Helper ]";
				mes "Unfortunately, the room is not filled with monsters yet.";
				close;
			}
			if (Zeny < .clearoutfee) {
				mes "[ DB Room Helper ]";
				mes "You need at least ^FF0000"+F_InsertComma(.clearoutfee)+" Z^000000 to clear out the monsters in this room.";
				close;
			}
			Zeny -= .clearoutfee;
			message strcharinfo(0), "Paid "+F_InsertComma(.clearoutfee)+" for the clean-up.";
			killmonsterall strcharinfo(3);
			mes @header$;
			mes "The monsters has been cleared out.";
			close();
			end;
		case 13:
			mes "[ DB Room Helper ]";
			mes "Are you sure you want to leave this room ?";
			mes " ";
			mes "If this room left empty for more than "+ .nobodygiveup +" minutes, you lost ownership for this room.";
			if (select("Yes:No") == 2) close;
			warp .respawnmap$, .respawnx, .respawny;
			end;
		case 14:
			mes "[ DB Room Helper ]";
			getmapxy .@map$, .@x, .@y, 0;
			if (getmapusers(.@map$) > 1) {
				mes "There are still some players in this room. Make sure you are the last member in this room to use this option.";
				close;
			}
			mes "Are you sure you want to give up this room ?";
			if (.rentcost)
				mes " ";
				mes "You will need to pay again to enter this room.";
			next;
			if (select("Yes:No") == 2) close;
			warp .respawnmap$, .respawnx, .respawny;
			set .remaintime[.@dif], -1;
			end;
	}
	close;

OnEnterMap:
	set .@dif, strnpcinfo(2);
	set .remind[.@dif], 0;
	for (set .@i, 1; .@i <= 9; set .@i, .@i +1)
		deletearray getd(".group"+ .@i +"limit"+ .@dif), getd(".group"+ .@i +"idsize");
	set .nobodycounter[.@dif], 0;
	getmapxy .@map$, .@x, .@y ,1;
	set .starttime[.@dif], gettimetick(2);
	do {
		set .remaintime[.@dif], .timeout * 60 + .starttime[.@dif] - gettimetick(2);
		set .@hour[.@dif], .remaintime[.@dif] / 3600 ;
		set .@min[.@dif], .remaintime[.@dif] % 3600 / 60 ;
		set .@sec[.@dif], .remaintime[.@dif] % 3600 % 60 ;
		delwaitingroom strnpcinfo(0);
		waitingroom "Time Left = "+((.@hour[.@dif])?(.@hour[.@dif] +":"):"")+((.@min[.@dif] < 10)?"0"+ .@min[.@dif]: .@min[.@dif])+":"+((.@sec[.@dif] < 10)?"0"+ .@sec[.@dif]: .@sec[.@dif]), 0;
		if (getmapusers(.@map$))
			set .nobodycounter[.@dif], 0;
		else {
			set .nobodycounter[.@dif], .nobodycounter[.@dif] +1 ;
			if (.nobodycounter[.@dif] > .nobodygiveup * 60) break;
		}
		sleep 995;
	} while (.remaintime[.@dif] > 1);
	set .remaintime[.@dif], 0;
	delwaitingroom "DB Room Helper#"+ .@dif;
	mapwarp .@map$, .respawnmap$, .respawnx, .respawny;
	end;

OnTimer100:
	stopnpctimer;
	npctalk "Hi ~ the bubble above my head is the countdown for using this room.";
	sleep 2000;
	npctalk "Sometimes, I can skip for about 1 second in the countdown.";
	sleep 3000;
	npctalk "That is because the server is experiencing minor lag problem.";
	sleep 3000;
	npctalk "So, don't complain about me cheated for the countdown ~ ^.^";
	sleep 3000;
	npctalk "Have a nice day ~";
	end;
}

prontera,165,148,4	script	Branch Room	4_M_REIDIN_KURS,{
	cutin("3rd_ranger", 2);
	set @header$,"[ Branch Room ]";
	mes @header$;
	mes "I'm the DB Room staff, We offer two types of Dead Branch Room";
	mes " ";
	mes "Please choose what Room do you need.";
	next;
	switch(select("Public DB Room:Private DB Room:Cancel")) {
		case 1: callfunc "DB_Public"; break;
		case 2: callfunc "DB_Private"; break;
		default:
			mes @header$;
			mes "Hmm.. Very well..";
			mes " ";
			mes "If you need a safe haven to wreak havoc with the nefarious monsters";
			mes "of Rune Midgard, you know where";
			mes "to find me, old friend. See ya!";
			F_CloseCutin();
			break;
	}
	F_CloseCutin();
}

function	script	DB_Public	{
	set @header$,"[ Branch Room ]";
	mes @header$;
	mes "Public Room is it?, But remember this room is PK and KS free.";
	next;
	.@menu$ = "";
	for (.@i=1; .@i<=20; ++.@i) {
		.@m$ = "dbroom"+.@i;
		.@menu$ += "Public Room "+.@i+" - ["+getmapusers(.@m$)+"]" + ":";
	}
	.@j = select(.@menu$);
	warp("dbroom"+.@j, 0, 0);
	return;
}

dbroom1,110,71,3	shop	DB Room Helper#s1	4_M_ZONDAMAN,12109:50000,604:100000,12103:1000000
dbroom2,110,71,3	shop	DB Room Helper#s2	4_M_ZONDAMAN,12109:50000,604:100000,12103:1000000
dbroom3,110,71,3	shop	DB Room Helper#s3	4_M_ZONDAMAN,12109:50000,604:100000,12103:1000000
dbroom4,110,71,3	shop	DB Room Helper#s4	4_M_ZONDAMAN,12109:50000,604:100000,12103:1000000
dbroom5,110,71,3	shop	DB Room Helper#s5	4_M_ZONDAMAN,12109:50000,604:100000,12103:1000000
dbroom6,110,71,3	shop	DB Room Helper#s6	4_M_ZONDAMAN,12109:50000,604:100000,12103:1000000
dbroom7,110,71,3	shop	DB Room Helper#s7	4_M_ZONDAMAN,12109:50000,604:100000,12103:1000000
dbroom8,110,71,3	shop	DB Room Helper#s8	4_M_ZONDAMAN,12109:50000,604:100000,12103:1000000
dbroom9,110,71,3	shop	DB Room Helper#s9	4_M_ZONDAMAN,12109:50000,604:100000,12103:1000000
dbroom10,110,71,3	shop	DB Room Helper#s10	4_M_ZONDAMAN,12109:50000,604:100000,12103:1000000
dbroom11,110,71,3	shop	DB Room Helper#s11	4_M_ZONDAMAN,12109:50000,604:100000,12103:1000000
dbroom12,110,71,3	shop	DB Room Helper#s12	4_M_ZONDAMAN,12109:50000,604:100000,12103:1000000
dbroom13,110,71,3	shop	DB Room Helper#s13	4_M_ZONDAMAN,12109:50000,604:100000,12103:1000000
dbroom14,110,71,3	shop	DB Room Helper#s14	4_M_ZONDAMAN,12109:50000,604:100000,12103:1000000
dbroom15,110,71,3	shop	DB Room Helper#s15	4_M_ZONDAMAN,12109:50000,604:100000,12103:1000000
dbroom16,110,71,3	shop	DB Room Helper#s16	4_M_ZONDAMAN,12109:50000,604:100000,12103:1000000
dbroom17,110,71,3	shop	DB Room Helper#s17	4_M_ZONDAMAN,12109:50000,604:100000,12103:1000000
dbroom18,110,71,3	shop	DB Room Helper#s18	4_M_ZONDAMAN,12109:50000,604:100000,12103:1000000
dbroom19,110,71,3	shop	DB Room Helper#s19	4_M_ZONDAMAN,12109:50000,604:100000,12103:1000000
dbroom20,110,71,3	shop	DB Room Helper#s20	4_M_ZONDAMAN,12109:50000,604:100000,12103:1000000
dbroom21,110,71,3	shop	DB Room Helper#s21	4_M_ZONDAMAN,12109:50000,604:100000,12103:1000000
dbroom22,110,71,3	shop	DB Room Helper#s22	4_M_ZONDAMAN,12109:50000,604:100000,12103:1000000
dbroom23,110,71,3	shop	DB Room Helper#s23	4_M_ZONDAMAN,12109:50000,604:100000,12103:1000000
dbroom24,110,71,3	shop	DB Room Helper#s24	4_M_ZONDAMAN,12109:50000,604:100000,12103:1000000
dbroom25,110,71,3	shop	DB Room Helper#s25	4_M_ZONDAMAN,12109:50000,604:100000,12103:1000000
dbroom26,110,71,3	shop	DB Room Helper#s26	4_M_ZONDAMAN,12109:50000,604:100000,12103:1000000
dbroom27,110,71,3	shop	DB Room Helper#s27	4_M_ZONDAMAN,12109:50000,604:100000,12103:1000000
dbroom28,110,71,3	shop	DB Room Helper#s28	4_M_ZONDAMAN,12109:50000,604:100000,12103:1000000
dbroom29,110,71,3	shop	DB Room Helper#s29	4_M_ZONDAMAN,12109:50000,604:100000,12103:1000000
dbroom30,110,71,3	shop	DB Room Helper#s30	4_M_ZONDAMAN,12109:50000,604:100000,12103:1000000
dbroom31,110,71,3	shop	DB Room Helper#s31	4_M_ZONDAMAN,12109:50000,604:100000,12103:1000000
dbroom32,110,71,3	shop	DB Room Helper#s32	4_M_ZONDAMAN,12109:50000,604:100000,12103:1000000
dbroom33,110,71,3	shop	DB Room Helper#s33	4_M_ZONDAMAN,12109:50000,604:100000,12103:1000000
dbroom34,110,71,3	shop	DB Room Helper#s34	4_M_ZONDAMAN,12109:50000,604:100000,12103:1000000
dbroom35,110,71,3	shop	DB Room Helper#s35	4_M_ZONDAMAN,12109:50000,604:100000,12103:1000000
dbroom36,110,71,3	shop	DB Room Helper#s36	4_M_ZONDAMAN,12109:50000,604:100000,12103:1000000
dbroom37,110,71,3	shop	DB Room Helper#s37	4_M_ZONDAMAN,12109:50000,604:100000,12103:1000000
dbroom38,110,71,3	shop	DB Room Helper#s38	4_M_ZONDAMAN,12109:50000,604:100000,12103:1000000
dbroom39,110,71,3	shop	DB Room Helper#s39	4_M_ZONDAMAN,12109:50000,604:100000,12103:1000000
dbroom40,110,71,3	shop	DB Room Helper#s40	4_M_ZONDAMAN,12109:50000,604:100000,12103:1000000
dbroom41,110,71,3	shop	DB Room Helper#s41	4_M_ZONDAMAN,12109:50000,604:100000,12103:1000000
dbroom42,110,71,3	shop	DB Room Helper#s42	4_M_ZONDAMAN,12109:50000,604:100000,12103:1000000
dbroom43,110,71,3	shop	DB Room Helper#s43	4_M_ZONDAMAN,12109:50000,604:100000,12103:1000000
dbroom44,110,71,3	shop	DB Room Helper#s44	4_M_ZONDAMAN,12109:50000,604:100000,12103:1000000
dbroom45,110,71,3	shop	DB Room Helper#s45	4_M_ZONDAMAN,12109:50000,604:100000,12103:1000000
dbroom46,110,71,3	shop	DB Room Helper#s46	4_M_ZONDAMAN,12109:50000,604:100000,12103:1000000
dbroom47,110,71,3	shop	DB Room Helper#s47	4_M_ZONDAMAN,12109:50000,604:100000,12103:1000000
dbroom48,110,71,3	shop	DB Room Helper#s48	4_M_ZONDAMAN,12109:50000,604:100000,12103:1000000
dbroom49,110,71,3	shop	DB Room Helper#s49	4_M_ZONDAMAN,12109:50000,604:100000,12103:1000000
dbroom50,110,71,3	shop	DB Room Helper#s50	4_M_ZONDAMAN,12109:50000,604:100000,12103:1000000

function	script	DB_Private	{
	set @header$,"[ Branch Room ]";
	mes @header$;
	mes "Private Room is it?, You must be rich! You dont need to worry about this Room its all yours!.";
	next;
	mes @header$;
	mes "Please select a Room number.";
	mes " ";
	if (getvariableofnpc(.rentitemid, "DB Room Helper") && getvariableofnpc(.rentitemamount, "DB Room Helper"))
		mes "The cost to rent a room for "+ getvariableofnpc(.timeout, "DB Room Helper") +" minutes is "+ getvariableofnpc(.rentitemamount, "DB Room Helper") +" "+ getitemname(getvariableofnpc(.rentitemid, "DB Room Helper")) +".";
	else if (getvariableofnpc(.rentcost, "DB Room Helper"))
		mes "The cost to rent a room for "+ getvariableofnpc(.timeout, "DB Room Helper") +" minutes is "+ callfunc("int__", getvariableofnpc(.rentcost, "DB Room Helper")) +" Zeny.";
	else
		mes "You can only use the room for only "+ getvariableofnpc(.timeout, "DB Room Helper") +" minutes.";
	for (set .@i, 1; .@i <= 20; set .@i, .@i +1) {
		if (getvariableofnpc(.remaintime[.@i],"DB Room Helper")) {
			switch (.type[.@i]) {
				case 1: set .@color$, "^EE8800"; break;
				case 2: set .@color$, "^70CC11"; break;
				case 3: set .@color$, "^0000FF"; break;
				default: set .@color$, "^000000";
			}
			mes "Room #"+ .@i +" = "+ .@color$ + .whoinuse$[.@i] +"^000000";
		}
	}
	next;
	.@menu$ = "";
	for (.@i=1; .@i <= 20; .@i++)
		.@menu$ += "Private Room "+.@i+" - "+(getvariableofnpc(.remaintime[.@i], "DB Room Helper")? "["+ getmapusers("pdbroom"+.@i) +"]" : "^009900Available^000000") + ":";
		
	set .@room, select(.@menu$);
	if (getvariableofnpc(.remaintime[.@room],"DB Room Helper")) {
		if (.inuseid[.@room] == getcharid(.type[.@room])) {
			if (getvariableofnpc(.killmonster,"DB Room Helper") && getmapusers("pdbroom"+ .@room) == 0)
				killmonsterall "pdbroom"+ .@room;
			warp "pdbroom"+ .@room, 0,0;
			end;
		} else {
			mes @header$;
			switch (.type[.@room]) {
				case 1: set .@color$, "^EE8800Party "; break;
				case 2: set .@color$, "^70CC11Guild "; break;
				case 3: set .@color$, "^0000FFPlayer ";
			}
			mes "This room is reserved for ";
			mes .@color$ + .whoinuse$[.@room] +"^000000 .";
			if (getgmlevel() < getvariableofnpc(.gmlvlkick,"DB Room Helper")) {
				mes "Please select another.";
				F_CloseCutin();
			}
			mes " ";
			mes "Currently there are "+ getmapusers("pdbroom"+ .@room) +" players";
			mes "in that room.";
			set .@remaintime, getvariableofnpc(.remaintime[.@room],"DB Room Helper");
			mes "It still has "+(.@remaintime /60)+"mn "+(.@remaintime %60)+"s left.";
			set .@nobodycounter, getvariableofnpc(.nobodycounter[.@room],"DB Room Helper");
			if (.@nobodycounter)
				mes "And have left empty for "+(.@nobodycounter /60)+"mn "+(.@nobodycounter %60)+"s.";
			mes "Kick them ?";
			next;
			if (select ("No:Yes") == 1) close;
			set getvariableofnpc(.remaintime[.@room],"DB Room Helper"), -1;
			mes @header$;
			mes "Room#"+ .@room +" is empty now.";
			F_CloseCutin();
		}
	}
	mes @header$;
	if (getvariableofnpc(.rentitemid, "DB Room Helper") && getvariableofnpc(.rentitemamount, "DB Room Helper")) {
		if (countitem(getvariableofnpc(.rentitemid, "DB Room Helper")) < getvariableofnpc(.rentitemamount, "DB Room Helper")) {
			mes "You don't have enough "+ getitemname(getvariableofnpc(.rentitemid, "DB Room Helper")) +" to rent a room.";
			F_CloseCutin();
		}
	}
	else if (getvariableofnpc(.rentcost, "DB Room Helper")) {
		if (Zeny < getvariableofnpc(.rentcost, "DB Room Helper")) {
			mes "You don't have enough Zeny to rent a room.";
			F_CloseCutin();
		}
	}
	mes "You reserve this room for ...";
	next;
	set .@type, select("For my party members", "For my guild members", "For personal account use");
	if (getcharid(.@type) == 0) {
		mes @header$;
		mes "You do not own a "+((.@type == 1)?"Party":"Guild")+".";
		F_CloseCutin();
	}
	else if (getvariableofnpc(.rentitemid, "DB Room Helper") && getvariableofnpc(.rentitemamount, "DB Room Helper")) {
		if (countitem(getvariableofnpc(.rentitemid, "DB Room Helper")) < getvariableofnpc(.rentitemamount, "DB Room Helper")) {
			mes "You don't have enough "+ getitemname(getvariableofnpc(.rentitemid, "DB Room Helper")) +" to rent a room.";
			F_CloseCutin();
		}
	}
	else if (getvariableofnpc(.remaintime[.@room],"DB Room Helper")) {
		mes @header$;
		mes "I'm sorry, somebody else has already register this room faster than you.";
		F_CloseCutin();
	}
	for (set .@i, 1; .@i <= 8; set .@i, .@i +1) {
		if (getvariableofnpc(.remaintime[.@i],"DB Room Helper") && .@type == .type[.@i] && getcharid(.@type) == .inuseid[.@i]) {
			mes @header$;
			mes "You already rented Room#"+ .@i +". Use that room instead.";
			F_CloseCutin();
		}
	}
	set .type[.@room], .@type;
	set .inuseid[.@room], getcharid(.@type);
	set .whoinuse$[.@room], strcharinfo((.@type == 3)?0:.@type);
	if (getvariableofnpc(.rentitemid, "DB Room Helper") && getvariableofnpc(.rentitemamount, "DB Room Helper")) {
		if (countitem(getvariableofnpc(.rentitemid, "DB Room Helper")) < getvariableofnpc(.rentitemamount, "DB Room Helper")) end;
		delitem getvariableofnpc(.rentitemid, "DB Room Helper"), getvariableofnpc(.rentitemamount, "DB Room Helper");
	}
	else if (getvariableofnpc(.rentcost, "DB Room Helper")) {
		if (Zeny < getvariableofnpc(.rentcost, "DB Room Helper")) end;
		set Zeny, Zeny - getvariableofnpc(.rentcost, "DB Room Helper");
	}
	warp "pdbroom"+ .@room, 0,0;
	killmonsterall "pdbroom"+ .@room;
	donpcevent "DB Room Helper#"+ .@room +"::OnEnterMap";
	end;
}

pdbroom1,48,49,4	duplicate(DB Room Helper)	DB Room Helper#1	4_F_KAFRA2
pdbroom2,48,49,4	duplicate(DB Room Helper)	DB Room Helper#2	4_F_KAFRA2
pdbroom3,48,49,4	duplicate(DB Room Helper)	DB Room Helper#3	4_F_KAFRA2
pdbroom4,48,49,4	duplicate(DB Room Helper)	DB Room Helper#4	4_F_KAFRA2
pdbroom5,48,49,4	duplicate(DB Room Helper)	DB Room Helper#5	4_F_KAFRA2
pdbroom6,48,49,4	duplicate(DB Room Helper)	DB Room Helper#6	4_F_KAFRA2
pdbroom7,48,49,4	duplicate(DB Room Helper)	DB Room Helper#7	4_F_KAFRA2
pdbroom8,48,49,4	duplicate(DB Room Helper)	DB Room Helper#8	4_F_KAFRA2
pdbroom9,48,49,4	duplicate(DB Room Helper)	DB Room Helper#9	4_F_KAFRA2
pdbroom10,48,49,4	duplicate(DB Room Helper)	DB Room Helper#10	4_F_KAFRA2
pdbroom11,48,49,4	duplicate(DB Room Helper)	DB Room Helper#11	4_F_KAFRA2
pdbroom12,48,49,4	duplicate(DB Room Helper)	DB Room Helper#12	4_F_KAFRA2
pdbroom13,48,49,4	duplicate(DB Room Helper)	DB Room Helper#13	4_F_KAFRA2
pdbroom14,48,49,4	duplicate(DB Room Helper)	DB Room Helper#14	4_F_KAFRA2
pdbroom15,48,49,4	duplicate(DB Room Helper)	DB Room Helper#15	4_F_KAFRA2
pdbroom16,48,49,4	duplicate(DB Room Helper)	DB Room Helper#16	4_F_KAFRA2
pdbroom17,48,49,4	duplicate(DB Room Helper)	DB Room Helper#17	4_F_KAFRA2
pdbroom18,48,49,4	duplicate(DB Room Helper)	DB Room Helper#18	4_F_KAFRA2
pdbroom19,48,49,4	duplicate(DB Room Helper)	DB Room Helper#19	4_F_KAFRA2
pdbroom20,48,49,4	duplicate(DB Room Helper)	DB Room Helper#20	4_F_KAFRA2
pdbroom21,48,49,4	duplicate(DB Room Helper)	DB Room Helper#21	4_F_KAFRA2
pdbroom22,48,49,4	duplicate(DB Room Helper)	DB Room Helper#22	4_F_KAFRA2
pdbroom23,48,49,4	duplicate(DB Room Helper)	DB Room Helper#23	4_F_KAFRA2
pdbroom24,48,49,4	duplicate(DB Room Helper)	DB Room Helper#24	4_F_KAFRA2
pdbroom25,48,49,4	duplicate(DB Room Helper)	DB Room Helper#25	4_F_KAFRA2
pdbroom26,48,49,4	duplicate(DB Room Helper)	DB Room Helper#26	4_F_KAFRA2
pdbroom27,48,49,4	duplicate(DB Room Helper)	DB Room Helper#27	4_F_KAFRA2
pdbroom28,48,49,4	duplicate(DB Room Helper)	DB Room Helper#28	4_F_KAFRA2
pdbroom29,48,49,4	duplicate(DB Room Helper)	DB Room Helper#29	4_F_KAFRA2
pdbroom30,48,49,4	duplicate(DB Room Helper)	DB Room Helper#30	4_F_KAFRA2
pdbroom31,48,49,4	duplicate(DB Room Helper)	DB Room Helper#31	4_F_KAFRA2
pdbroom32,48,49,4	duplicate(DB Room Helper)	DB Room Helper#32	4_F_KAFRA2
pdbroom33,48,49,4	duplicate(DB Room Helper)	DB Room Helper#33	4_F_KAFRA2
pdbroom34,48,49,4	duplicate(DB Room Helper)	DB Room Helper#34	4_F_KAFRA2
pdbroom35,48,49,4	duplicate(DB Room Helper)	DB Room Helper#35	4_F_KAFRA2
pdbroom36,48,49,4	duplicate(DB Room Helper)	DB Room Helper#36	4_F_KAFRA2
pdbroom37,48,49,4	duplicate(DB Room Helper)	DB Room Helper#37	4_F_KAFRA2
pdbroom38,48,49,4	duplicate(DB Room Helper)	DB Room Helper#38	4_F_KAFRA2
pdbroom39,48,49,4	duplicate(DB Room Helper)	DB Room Helper#39	4_F_KAFRA2
pdbroom40,48,49,4	duplicate(DB Room Helper)	DB Room Helper#40	4_F_KAFRA2
pdbroom41,48,49,4	duplicate(DB Room Helper)	DB Room Helper#41	4_F_KAFRA2
pdbroom42,48,49,4	duplicate(DB Room Helper)	DB Room Helper#42	4_F_KAFRA2
pdbroom43,48,49,4	duplicate(DB Room Helper)	DB Room Helper#43	4_F_KAFRA2
pdbroom44,48,49,4	duplicate(DB Room Helper)	DB Room Helper#44	4_F_KAFRA2
pdbroom45,48,49,4	duplicate(DB Room Helper)	DB Room Helper#45	4_F_KAFRA2
pdbroom46,48,49,4	duplicate(DB Room Helper)	DB Room Helper#46	4_F_KAFRA2
pdbroom47,48,49,4	duplicate(DB Room Helper)	DB Room Helper#47	4_F_KAFRA2
pdbroom48,48,49,4	duplicate(DB Room Helper)	DB Room Helper#48	4_F_KAFRA2
pdbroom49,48,49,4	duplicate(DB Room Helper)	DB Room Helper#49	4_F_KAFRA2
pdbroom50,48,49,4	duplicate(DB Room Helper)	DB Room Helper#50	4_F_KAFRA2

// Mapflags
dbroom1	mapflag	nowarpto
dbroom2	mapflag	nowarpto
dbroom3	mapflag	nowarpto
dbroom4	mapflag	nowarpto
dbroom5	mapflag	nowarpto
dbroom6	mapflag	nowarpto
dbroom7	mapflag	nowarpto
dbroom8	mapflag	nowarpto
dbroom9	mapflag	nowarpto
dbroom10	mapflag	nowarpto
dbroom11	mapflag	nowarpto
dbroom12	mapflag	nowarpto
dbroom13	mapflag	nowarpto
dbroom14	mapflag	nowarpto
dbroom15	mapflag	nowarpto
dbroom16	mapflag	nowarpto
dbroom17	mapflag	nowarpto
dbroom18	mapflag	nowarpto
dbroom19	mapflag	nowarpto
dbroom20	mapflag	nowarpto
dbroom21	mapflag	nowarpto
dbroom22	mapflag	nowarpto
dbroom23	mapflag	nowarpto
dbroom24	mapflag	nowarpto
dbroom25	mapflag	nowarpto
dbroom26	mapflag	nowarpto
dbroom27	mapflag	nowarpto
dbroom28	mapflag	nowarpto
dbroom29	mapflag	nowarpto
dbroom30	mapflag	nowarpto
dbroom31	mapflag	nowarpto
dbroom32	mapflag	nowarpto
dbroom33	mapflag	nowarpto
dbroom34	mapflag	nowarpto
dbroom35	mapflag	nowarpto
dbroom36	mapflag	nowarpto
dbroom37	mapflag	nowarpto
dbroom38	mapflag	nowarpto
dbroom39	mapflag	nowarpto
dbroom40	mapflag	nowarpto
dbroom41	mapflag	nowarpto
dbroom42	mapflag	nowarpto
dbroom43	mapflag	nowarpto
dbroom44	mapflag	nowarpto
dbroom45	mapflag	nowarpto
dbroom46	mapflag	nowarpto
dbroom47	mapflag	nowarpto
dbroom48	mapflag	nowarpto
dbroom49	mapflag	nowarpto
dbroom50	mapflag	nowarpto
dbroom1	mapflag	nosave
dbroom2	mapflag	nosave
dbroom3	mapflag	nosave
dbroom4	mapflag	nosave
dbroom5	mapflag	nosave
dbroom6	mapflag	nosave
dbroom7	mapflag	nosave
dbroom8	mapflag	nosave
dbroom9	mapflag	nosave
dbroom10	mapflag	nosave
dbroom11	mapflag	nosave
dbroom12	mapflag	nosave
dbroom13	mapflag	nosave
dbroom14	mapflag	nosave
dbroom15	mapflag	nosave
dbroom16	mapflag	nosave
dbroom17	mapflag	nosave
dbroom18	mapflag	nosave
dbroom19	mapflag	nosave
dbroom20	mapflag	nosave
dbroom21	mapflag	nosave
dbroom22	mapflag	nosave
dbroom23	mapflag	nosave
dbroom24	mapflag	nosave
dbroom25	mapflag	nosave
dbroom26	mapflag	nosave
dbroom27	mapflag	nosave
dbroom28	mapflag	nosave
dbroom29	mapflag	nosave
dbroom30	mapflag	nosave
dbroom31	mapflag	nosave
dbroom32	mapflag	nosave
dbroom33	mapflag	nosave
dbroom34	mapflag	nosave
dbroom35	mapflag	nosave
dbroom36	mapflag	nosave
dbroom37	mapflag	nosave
dbroom38	mapflag	nosave
dbroom39	mapflag	nosave
dbroom40	mapflag	nosave
dbroom41	mapflag	nosave
dbroom42	mapflag	nosave
dbroom43	mapflag	nosave
dbroom44	mapflag	nosave
dbroom45	mapflag	nosave
dbroom46	mapflag	nosave
dbroom47	mapflag	nosave
dbroom48	mapflag	nosave
dbroom49	mapflag	nosave
dbroom50	mapflag	nosave
dbroom1	mapflag	nopenalty
dbroom2	mapflag	nopenalty
dbroom3	mapflag	nopenalty
dbroom4	mapflag	nopenalty
dbroom5	mapflag	nopenalty
dbroom6	mapflag	nopenalty
dbroom7	mapflag	nopenalty
dbroom8	mapflag	nopenalty
dbroom9	mapflag	nopenalty
dbroom10	mapflag	nopenalty
dbroom11	mapflag	nopenalty
dbroom12	mapflag	nopenalty
dbroom13	mapflag	nopenalty
dbroom14	mapflag	nopenalty
dbroom15	mapflag	nopenalty
dbroom16	mapflag	nopenalty
dbroom17	mapflag	nopenalty
dbroom18	mapflag	nopenalty
dbroom19	mapflag	nopenalty
dbroom20	mapflag	nopenalty
dbroom21	mapflag	nopenalty
dbroom22	mapflag	nopenalty
dbroom23	mapflag	nopenalty
dbroom24	mapflag	nopenalty
dbroom25	mapflag	nopenalty
dbroom26	mapflag	nopenalty
dbroom27	mapflag	nopenalty
dbroom28	mapflag	nopenalty
dbroom29	mapflag	nopenalty
dbroom30	mapflag	nopenalty
dbroom31	mapflag	nopenalty
dbroom32	mapflag	nopenalty
dbroom33	mapflag	nopenalty
dbroom34	mapflag	nopenalty
dbroom35	mapflag	nopenalty
dbroom36	mapflag	nopenalty
dbroom37	mapflag	nopenalty
dbroom38	mapflag	nopenalty
dbroom39	mapflag	nopenalty
dbroom40	mapflag	nopenalty
dbroom41	mapflag	nopenalty
dbroom42	mapflag	nopenalty
dbroom43	mapflag	nopenalty
dbroom44	mapflag	nopenalty
dbroom45	mapflag	nopenalty
dbroom46	mapflag	nopenalty
dbroom47	mapflag	nopenalty
dbroom48	mapflag	nopenalty
dbroom49	mapflag	nopenalty
dbroom50	mapflag	nopenalty
dbroom1	mapflag	nomemo
dbroom2	mapflag	nomemo
dbroom3	mapflag	nomemo
dbroom4	mapflag	nomemo
dbroom5	mapflag	nomemo
dbroom6	mapflag	nomemo
dbroom7	mapflag	nomemo
dbroom8	mapflag	nomemo
dbroom9	mapflag	nomemo
dbroom10	mapflag	nomemo
dbroom11	mapflag	nomemo
dbroom12	mapflag	nomemo
dbroom13	mapflag	nomemo
dbroom14	mapflag	nomemo
dbroom15	mapflag	nomemo
dbroom16	mapflag	nomemo
dbroom17	mapflag	nomemo
dbroom18	mapflag	nomemo
dbroom19	mapflag	nomemo
dbroom20	mapflag	nomemo
dbroom21	mapflag	nomemo
dbroom22	mapflag	nomemo
dbroom23	mapflag	nomemo
dbroom24	mapflag	nomemo
dbroom25	mapflag	nomemo
dbroom26	mapflag	nomemo
dbroom27	mapflag	nomemo
dbroom28	mapflag	nomemo
dbroom29	mapflag	nomemo
dbroom30	mapflag	nomemo
dbroom31	mapflag	nomemo
dbroom32	mapflag	nomemo
dbroom33	mapflag	nomemo
dbroom34	mapflag	nomemo
dbroom35	mapflag	nomemo
dbroom36	mapflag	nomemo
dbroom37	mapflag	nomemo
dbroom38	mapflag	nomemo
dbroom39	mapflag	nomemo
dbroom40	mapflag	nomemo
dbroom41	mapflag	nomemo
dbroom42	mapflag	nomemo
dbroom43	mapflag	nomemo
dbroom44	mapflag	nomemo
dbroom45	mapflag	nomemo
dbroom46	mapflag	nomemo
dbroom47	mapflag	nomemo
dbroom48	mapflag	nomemo
dbroom49	mapflag	nomemo
dbroom50	mapflag	nomemo
