//SKILL_NAME, DELAY_AT_150, DELAY_AT_190, OPTION, ALLOWHILOCK (0=Nodelay, 1=Normal Animation, 2=Magical Animation

// Sniper
AC_SHOWER,720,710,1,0
HT_DETECTING,520,520,1,1
SN_SHARPSHOOTING,800,120,1,0
AC_DOUBLE,820,75,1,0
SN_FALCONASSAULT,600,90,1,1

// Gypsy, Clown
CG_TAROTCARD,250,110,1,0

// Professor
HW_GANBANTEIN,520,520,2,1
WZ_HEAVENDRIVE,520,520,2,1
MG_THUNDERSTORM,520,520,2,1
SA_DISPELL,520,520,2,1
SA_LANDPROTECTOR,520,520,2,1
SA_DELUGE,520,520,2,1

// Wizard
WZ_STORMGUST,520,520,2,1
WZ_METEOR,0,0,2,1
WZ_EARTHSPIKE,520,80,2,1
WZ_VERMILION,520,520,2,1
MG_FIREBOLT,520,75,2,1
MG_LIGHTNINGBOLT,520,75,2,1
MG_COLDBOLT,520,75,2,1
WZ_JUPITEL,520,80,2,1
MG_NAPALMBEAT,520,80,2,1
MG_SOULSTRIKE,520,80,2,1
MG_FIREBALL,520,80,2,1
MG_FROSTDIVER,520,80,2,1

// Acolyte
PR_STRECOVERY,520,520,2,1
PR_LEXAETERNA,520,520,2,1
PR_IMPOSITIO,520,520,2,1
HP_ASSUMPTIO,520,520,2,1
PR_LEXDIVINA,520,520,2,1
AL_CURE,520,520,2,1
AL_BLESSING,520,520,2,1
AL_INCAGI,0,0,2,1
MG_SAFETYWALL,520,520,2,1
PR_SANCTUARY,520,520,2,1
PR_MAGNUS,520,520,2,1
PR_SUFFRAGIUM,520,520,2,1
AL_PNEUMA,520,520,2,1
AL_HEAL,520,520,2,1
ALL_RESURRECTION,320,80,2,1
PR_TURNUNDEAD,320,80,2,1
AL_HOLYLIGHT,520,80,2,1

// Champion
MO_INVESTIGATE,520,80,1,1

// Swordman
SM_BASH,790,130,1,1
KN_BOWLINGBASH,800,120,1,0
SM_PROVOKE,520,520,2,1
SM_MAGNUM,2000,2000,1,1

// Lord Knight
KN_PIERCE,720,130,1,1
LK_SPIRALPIERCE,720,130,1,1
LK_HEADCRUSH,720,130,1,1
KN_SPEARSTAB,720,130,1,1
LK_JOINTBEAT,720,130,1,1
KN_BRANDISHSPEAR,720,130,1,1
KN_SPEARBOOMERANG,420,40,1,1

// Paladin
PA_PRESSURE,800,140,1,1
CR_SHIELDBOOMERANG,420,90,1,1
PA_SHIELDCHAIN,420,90,1,1
CR_DEVOTION,520,100,2,1

// Thief
AS_GRIMTOOTH,520,50,1,1
AS_SONICBLOW,520,50,1,1
ASC_BREAKER,790,130,1,1
AS_VENOMKNIFE,450,30,1,1

RG_STRIPHELM,700,520,2,1
RG_STRIPARMOR,700,520,2,1
RG_STRIPSHIELD,700,520,2,1
RG_STRIPWEAPON,700,520,2,1
RG_INTIMIDATE,700,130,1,1

// Soul Linker
SL_KAITE,520,520,1,1
SL_KAUPE,520,520,1,1
SL_KAAHI,520,520,1,1
SL_SKE,520,520,1,1
SL_SKA,520,520,1,1
SL_STIN,520,100,1,1
SL_STUN,520,100,1,1

// Soul Linker Spirits
SL_MONK,0,0,2,1
SL_STAR,0,0,2,1
SL_SAGE,0,0,2,1
SL_CRUSADER,0,0,2,1
SL_SUPERNOVICE,0,0,2,1
SL_KNIGHT,0,0,2,1
SL_WIZARD,0,0,2,1
SL_PRIEST,0,0,2,1
SL_BARDDANCER,0,0,2,1
SL_ROGUE,0,0,2,1
SL_ASSASIN,0,0,2,1
SL_BLACKSMITH,0,0,2,1
SL_HUNTER,0,0,2,1
SL_SOULLINKER,0,0,2,1

// Merchant
WS_CARTTERMINATION,520,75,1,1
MC_CARTREVOLUTION,520,80,1,1
BS_HAMMERFALL,520,520,1,1
MC_MAMMONITE,730,150,1,1

// Creator
CR_ACIDDEMONSTRATION,0,0,1,1
AM_POTIONPITCHER,420,100,1,1
AM_ACIDTERROR,450,100,1
CR_FULLPROTECTION,520,520,1,1
AM_CP_WEAPON,520,520,1,1
AM_CP_SHIELD,520,520,1,1
AM_CP_ARMOR,520,520,1,1
AM_CP_HELM,520,520,1,1

// Dancer
DC_WINKCHARM,360,30,2,1

// Gunsliger
GS_BULLSEYE,820,120,1,1
GS_FULLBUSTER,820,120,1,1
GS_SPREADATTACK,820,120,1,1
